project2/code/gg.vcd
$date
	Wed Dec 20 20:22:05 2017
$end
$version
	Icarus Verilog
$end
$timescale
	1s
$end
$scope module TestBench $end
$var wire 256 ! mem_cpu_data [255:0] $end
$var wire 1 " mem_cpu_ack $end
$var wire 1 # cpu_mem_write $end
$var wire 1 $ cpu_mem_enable $end
$var wire 256 % cpu_mem_data [255:0] $end
$var wire 32 & cpu_mem_addr [31:0] $end
$var reg 1 ' Clk $end
$var reg 1 ( Reset $end
$var reg 1 ) Start $end
$var reg 27 * address [26:0] $end
$var reg 1 + flag $end
$var reg 5 , index [4:0] $end
$var reg 24 - tag [23:0] $end
$var integer 32 . counter [31:0] $end
$var integer 32 / i [31:0] $end
$var integer 32 0 outfile [31:0] $end
$var integer 32 1 outfile2 [31:0] $end
$scope module CPU $end
$var wire 1 ' clk_i $end
$var wire 1 ( rst_i $end
$var wire 1 ) start_i $end
$var wire 1 # mem_write_o $end
$var wire 1 $ mem_enable_o $end
$var wire 256 2 mem_data_o [255:0] $end
$var wire 256 3 mem_data_i [255:0] $end
$var wire 32 4 mem_addr_o [31:0] $end
$var wire 1 " mem_ack_i $end
$var wire 32 5 inst_addr [31:0] $end
$var wire 32 6 inst [31:0] $end
$var wire 1 7 Zero $end
$var wire 32 8 MUXforward2_data [31:0] $end
$var wire 1 9 Jump $end
$var wire 1 : Branch $end
$scope module ALU $end
$var wire 1 ; Zero_o $end
$var wire 32 < data_o [31:0] $end
$var wire 32 = data2_i [31:0] $end
$var wire 32 > data1_i [31:0] $end
$var wire 3 ? ALUCtrl_i [2:0] $end
$upscope $end
$scope module ALU_Control $end
$var wire 6 @ funct_i [5:0] $end
$var wire 2 A ALUOp_i [1:0] $end
$var wire 3 B ALUCtrl_o [2:0] $end
$upscope $end
$scope module Add_PC $end
$var wire 32 C data2_in [31:0] $end
$var wire 32 D data_o [31:0] $end
$var wire 32 E data1_in [31:0] $end
$upscope $end
$scope module Add_address $end
$var wire 32 F data_o [31:0] $end
$var wire 32 G data2_in [31:0] $end
$var wire 32 H data1_in [31:0] $end
$upscope $end
$scope module Control $end
$var wire 6 I Op_i [5:0] $end
$var reg 1 : branch_o $end
$var reg 10 J ctrl_signal_o [9:0] $end
$var reg 1 9 jump_o $end
$upscope $end
$scope module EXMEM $end
$var wire 32 K addr_i [31:0] $end
$var wire 1 ' clk_i $end
$var wire 1 ( rst_i $end
$var wire 5 L rd_i [4:0] $end
$var wire 1 M halt_i $end
$var wire 32 N data_i [31:0] $end
$var wire 2 O WB_i [1:0] $end
$var wire 2 P M_i [1:0] $end
$var reg 2 Q M_o [1:0] $end
$var reg 2 R WB_o [1:0] $end
$var reg 32 S addr_o [31:0] $end
$var reg 32 T data_o [31:0] $end
$var reg 5 U rd_o [4:0] $end
$upscope $end
$scope module Flush $end
$var wire 1 : Branch_i $end
$var wire 1 9 Jump_i $end
$var wire 1 7 Zero_i $end
$var wire 1 V flush_o $end
$upscope $end
$scope module ForwardUnit $end
$var wire 5 W EXMEM_RD_i [4:0] $end
$var wire 1 X EXMEM_RegWrite_i $end
$var wire 1 Y MEMWB_RegWrite_i $end
$var wire 5 Z MEMWB_RD_i [4:0] $end
$var wire 5 [ IDEX_RT_i [4:0] $end
$var wire 5 \ IDEX_RS_i [4:0] $end
$var reg 2 ] Forward1_o [1:0] $end
$var reg 2 ^ Forward2_o [1:0] $end
$upscope $end
$scope module HazardDetection $end
$var wire 1 _ IFIDhazard_o $end
$var wire 1 ` MUX_Control_hazard_o $end
$var wire 5 a rt_i [4:0] $end
$var wire 32 b inst_i [31:0] $end
$var wire 1 c hazard_o $end
$var wire 1 d MemRead_i $end
$upscope $end
$scope module IDEX $end
$var wire 1 ' clk_i $end
$var wire 5 e rd_i [4:0] $end
$var wire 5 f rs_i [4:0] $end
$var wire 1 ( rst_i $end
$var wire 5 g rt_i [4:0] $end
$var wire 32 h signextend_i [31:0] $end
$var wire 1 M halt_i $end
$var wire 32 i data2_i [31:0] $end
$var wire 32 j data1_i [31:0] $end
$var wire 2 k WB_i [1:0] $end
$var wire 2 l M_i [1:0] $end
$var wire 4 m EX_i [3:0] $end
$var reg 4 n EX_o [3:0] $end
$var reg 2 o M_o [1:0] $end
$var reg 2 p WB_o [1:0] $end
$var reg 32 q data1_o [31:0] $end
$var reg 32 r data2_o [31:0] $end
$var reg 5 s rd_o [4:0] $end
$var reg 5 t rs_o [4:0] $end
$var reg 5 u rt_o [4:0] $end
$var reg 32 v signextend_o [31:0] $end
$upscope $end
$scope module IFID $end
$var wire 1 ' clk_i $end
$var wire 1 V flush_i $end
$var wire 1 _ hazard_i $end
$var wire 32 w pc_i [31:0] $end
$var wire 1 ( rst_i $end
$var wire 32 x inst_i [31:0] $end
$var wire 1 M halt_i $end
$var reg 32 y inst_o [31:0] $end
$var reg 32 z pc_o [31:0] $end
$upscope $end
$scope module Instruction_Memory $end
$var wire 32 { instr_o [31:0] $end
$var wire 32 | addr_i [31:0] $end
$upscope $end
$scope module MEMWB $end
$var wire 2 } WB_i [1:0] $end
$var wire 32 ~ addr_i [31:0] $end
$var wire 1 ' clk_i $end
$var wire 5 !" rd_i [4:0] $end
$var wire 1 ( rst_i $end
$var wire 1 M halt_i $end
$var wire 32 "" data_i [31:0] $end
$var reg 2 #" WB_o [1:0] $end
$var reg 32 $" addr_o [31:0] $end
$var reg 32 %" data_o [31:0] $end
$var reg 5 &" rd_o [4:0] $end
$upscope $end
$scope module MUX32 $end
$var wire 32 '" data2_i [31:0] $end
$var wire 1 (" select_i $end
$var wire 32 )" data_o [31:0] $end
$var wire 32 *" data1_i [31:0] $end
$upscope $end
$scope module MUX5 $end
$var wire 5 +" data1_i [4:0] $end
$var wire 5 ," data2_i [4:0] $end
$var wire 1 -" select_i $end
$var wire 5 ." data_o [4:0] $end
$upscope $end
$scope module MUX_Add $end
$var wire 1 7 Zero_i $end
$var wire 32 /" data1_i [31:0] $end
$var wire 32 0" data2_i [31:0] $end
$var wire 1 : select_i $end
$var reg 32 1" data_o [31:0] $end
$var reg 1 2" select $end
$upscope $end
$scope module MUX_Control $end
$var wire 10 3" ctrl_sig_i [9:0] $end
$var wire 1 ` hazard_i $end
$var reg 2 4" ALUOp [1:0] $end
$var reg 1 5" ALUSrc $end
$var reg 4 6" EX_o [3:0] $end
$var reg 2 7" M_o [1:0] $end
$var reg 1 8" MemRead $end
$var reg 1 9" MemWrite $end
$var reg 1 :" MemtoReg $end
$var reg 1 ;" RegDst $end
$var reg 1 <" RegWrite $end
$var reg 2 =" WB_o [1:0] $end
$upscope $end
$scope module MUX_Jump $end
$var wire 32 >" data1_32_i [31:0] $end
$var wire 32 ?" data2_i [31:0] $end
$var wire 1 9 select_i $end
$var wire 28 @" data1_28_i [27:0] $end
$var reg 32 A" data1 [31:0] $end
$var reg 32 B" data_o [31:0] $end
$upscope $end
$scope module MUX_Write $end
$var wire 32 C" data1_i [31:0] $end
$var wire 32 D" data2_i [31:0] $end
$var wire 1 E" select_i $end
$var wire 32 F" data_o [31:0] $end
$upscope $end
$scope module MUXforward_1 $end
$var wire 32 G" EXMEM_addr_i [31:0] $end
$var wire 32 H" MEMWB_data_i [31:0] $end
$var wire 32 I" data_i [31:0] $end
$var wire 2 J" select_i [1:0] $end
$var reg 32 K" data_o [31:0] $end
$upscope $end
$scope module MUXforward_2 $end
$var wire 32 L" EXMEM_addr_i [31:0] $end
$var wire 32 M" MEMWB_data_i [31:0] $end
$var wire 32 N" data_i [31:0] $end
$var wire 2 O" select_i [1:0] $end
$var reg 32 P" data_o [31:0] $end
$upscope $end
$scope module PC $end
$var wire 1 ' clk_i $end
$var wire 32 Q" pc_i [31:0] $end
$var wire 1 ( rst_i $end
$var wire 1 c stall_i $end
$var wire 1 ) start_i $end
$var wire 1 M halt_i $end
$var reg 32 R" pc_o [31:0] $end
$upscope $end
$scope module Registers $end
$var wire 5 S" RDaddr_i [4:0] $end
$var wire 32 T" RDdata_i [31:0] $end
$var wire 5 U" RSaddr_i [4:0] $end
$var wire 32 V" RSdata_o [31:0] $end
$var wire 5 W" RTaddr_i [4:0] $end
$var wire 32 X" RTdata_o [31:0] $end
$var wire 1 Y" RegWrite_i $end
$var wire 1 ' clk_i $end
$upscope $end
$scope module ShiftLeft26 $end
$var wire 26 Z" data_i [25:0] $end
$var wire 28 [" data_o [27:0] $end
$upscope $end
$scope module ShiftLeft32 $end
$var wire 32 \" data_i [31:0] $end
$var reg 32 ]" data_o [31:0] $end
$upscope $end
$scope module Sign_Extend $end
$var wire 16 ^" data_i [15:0] $end
$var wire 32 _" data_o [31:0] $end
$upscope $end
$scope module dcache $end
$var wire 1 `" cache_dirty $end
$var wire 1 a" cache_sram_enable $end
$var wire 5 b" cache_sram_index [4:0] $end
$var wire 1 c" cache_sram_write $end
$var wire 1 ' clk_i $end
$var wire 256 d" mem_data_o [255:0] $end
$var wire 1 $ mem_enable_o $end
$var wire 1 # mem_write_o $end
$var wire 1 e" p1_MemRead_i $end
$var wire 1 f" p1_MemWrite_i $end
$var wire 32 g" p1_addr_i [31:0] $end
$var wire 32 h" p1_data_i [31:0] $end
$var wire 32 i" p1_data_o [31:0] $end
$var wire 1 j" p1_req $end
$var wire 1 M p1_stall_o $end
$var wire 1 ( rst_i $end
$var wire 1 k" write_hit $end
$var wire 1 l" sram_valid $end
$var wire 22 m" sram_tag [21:0] $end
$var wire 1 n" sram_dirty $end
$var wire 24 o" sram_cache_tag [23:0] $end
$var wire 256 p" sram_cache_data [255:0] $end
$var wire 256 q" r_hit_data [255:0] $end
$var wire 22 r" p1_tag [21:0] $end
$var wire 5 s" p1_offset [4:0] $end
$var wire 5 t" p1_index [4:0] $end
$var wire 256 u" mem_data_i [255:0] $end
$var wire 32 v" mem_addr_o [31:0] $end
$var wire 1 " mem_ack_i $end
$var wire 1 w" hit $end
$var wire 24 x" cache_sram_tag [23:0] $end
$var wire 256 y" cache_sram_data [255:0] $end
$var reg 1 z" cache_we $end
$var reg 1 {" mem_enable $end
$var reg 1 |" mem_write $end
$var reg 32 }" p1_data [31:0] $end
$var reg 3 ~" state [2:0] $end
$var reg 256 !# w_hit_data [255:0] $end
$var reg 1 "# write_back $end
$scope module dcache_data_sram $end
$var wire 5 ## addr_i [4:0] $end
$var wire 1 ' clk_i $end
$var wire 256 $# data_i [255:0] $end
$var wire 1 a" enable_i $end
$var wire 1 c" write_i $end
$var wire 256 %# data_o [255:0] $end
$upscope $end
$scope module dcache_tag_sram $end
$var wire 5 &# addr_i [4:0] $end
$var wire 1 ' clk_i $end
$var wire 24 '# data_i [23:0] $end
$var wire 1 a" enable_i $end
$var wire 1 c" write_i $end
$var wire 24 (# data_o [23:0] $end
$upscope $end
$upscope $end
$upscope $end
$scope module Data_Memory $end
$var wire 1 " ack_o $end
$var wire 32 )# addr_i [31:0] $end
$var wire 1 ' clk_i $end
$var wire 256 *# data_i [255:0] $end
$var wire 256 +# data_o [255:0] $end
$var wire 1 $ enable_i $end
$var wire 1 ( rst_i $end
$var wire 1 # write_i $end
$var wire 27 ,# addr [26:0] $end
$var reg 1 -# ack $end
$var reg 4 .# count [3:0] $end
$var reg 256 /# data [255:0] $end
$var reg 1 0# ok $end
$var reg 2 1# state [1:0] $end
$upscope $end
$upscope $end
$enddefinitions $end
#12
$dumpvars
b0 1#
00#
bx /#
b0 .#
0-#
b0 ,#
bx +#
b0 *#
b0 )#
b0 (#
b100000000000000000000000 '#
b0 &#
b0 %#
bx $#
b0 ##
0"#
b0 !#
b0 ~"
b0 }"
0|"
0{"
0z"
bx y"
b100000000000000000000000 x"
0w"
b0 v"
bx u"
b0 t"
b0 s"
b0 r"
b0 q"
b0 p"
b0 o"
0n"
b0 m"
0l"
0k"
0j"
b0 i"
b0 h"
b0 g"
0f"
0e"
b0 d"
0c"
b0 b"
0a"
0`"
b0 _"
b0 ^"
b0 ]"
b0 \"
b0 ["
b0 Z"
xY"
b0 X"
b0 W"
b0 V"
b0 U"
bx T"
bx S"
b0 R"
b100 Q"
b0 P"
b0 O"
b0 N"
bx M"
b0 L"
b0 K"
b0 J"
b0 I"
bx H"
b0 G"
bx F"
xE"
bx D"
bx C"
b100 B"
b0 A"
b0 @"
b100 ?"
b100 >"
b10 ="
1<"
1;"
0:"
09"
08"
b0 7"
b111 6"
05"
b11 4"
b1110010000 3"
02"
b100 1"
b0 0"
b100 /"
b0 ."
0-"
b0 ,"
b0 +"
b0 *"
b0 )"
0("
b0 '"
bx &"
bx %"
bx $"
bx #"
b0 ""
b0 !"
b0 ~
b0 }
b0 |
b100000000010000000000000000001 {
b0 z
b0 y
b100000000010000000000000000001 x
b100 w
b0 v
b0 u
b0 t
b0 s
b0 r
b0 q
b0 p
b0 o
b0 n
b111 m
b0 l
b10 k
b0 j
b0 i
b0 h
b0 g
b0 f
b0 e
0d
0c
b0 b
b0 a
0`
0_
b0 ^
b0 ]
b0 \
b0 [
bx Z
xY
0X
b0 W
0V
b0 U
b0 T
b0 S
b0 R
b0 Q
b0 P
b0 O
b0 N
0M
b0 L
b0 K
b1110010000 J
b0 I
b0 H
b0 G
b0 F
b0 E
b100 D
b100 C
b10 B
b0 A
b0 @
b10 ?
b0 >
b0 =
b0 <
z;
0:
09
b0 8
17
b0 6
b0 5
b0 4
bx 3
b0 2
b101 1
b11 0
b100000 /
b1 .
bx -
bx ,
x+
bx *
1)
1(
0'
b0 &
b0 %
0$
0#
0"
bx !
$end
#25
b1000 m
b1000 6"
15"
0;"
b0 4"
b1010000 J
b1010000 3"
b0 ?
b0 B
b100 G
b100 ]"
b1000 B"
b1000 Q"
b1000000000000000000100 A"
b10101100000010000000000000000000 x
b10101100000010000000000000000000 {
1-"
b11 A
b1 h
b1 \"
b1 _"
b1 ^"
b1000 I
b1000 W"
b1000000000000000000100 @"
b1000000000000000000100 ["
b10000000000000000001 Z"
b1000 g
b1000 1"
b1000 >"
b1000 ?"
b0 F"
b0 H"
b0 M"
b0 T"
0Y
0E"
0Y"
b1000 D
b1000 w
b1000 /"
b100 5
b100 E
b100 |
b100 R"
b111 n
b10 O
b10 p
b100000000010000000000000000001 6
b100000000010000000000000000001 b
b100000000010000000000000000001 y
b1000 F
b1000 0"
b100 H
b100 z
b0 Z
b0 &"
b0 S"
b0 %"
b0 C"
b0 $"
b0 D"
b0 #"
b10 .
0+
1'
#50
0'
#75
b1 l
b1 7"
b0 k
b0 ="
19"
0<"
b1001000 J
b1001000 3"
b1 <
b1 K
b10 ?
b10 B
b1000 L
b1000 ."
b1 =
b1 )"
b0 G
b0 ]"
b1100 B"
b1100 Q"
b1000000000000000000000 A"
b0 h
b0 \"
b0 _"
b0 ^"
b101011 I
b1000000000000000000000 @"
b1000000000000000000000 ["
b10000000000000000000 Z"
b1 @
0-"
1("
b0 A
1X
b100000000010000001000100010001 x
b100000000010000001000100010001 {
b1100 1"
b1100 >"
b1100 ?"
b10101100000010000000000000000000 6
b10101100000010000000000000000000 b
b10101100000010000000000000000000 y
b1000 F
b1000 0"
b1000 H
b1000 z
b1000 [
b1000 a
b1000 u
b1000 +"
b1 v
b1 '"
b1000 n
b10 R
b10 }
b1100 D
b1100 w
b1100 /"
b1000 5
b1000 E
b1000 |
b1000 R"
b11 .
1'
#100
0'
#125
b0 l
b0 7"
b10 k
b10 ="
09"
1<"
b1010000 J
b1010000 3"
b0 <
b0 K
b1 8
b1 N
b1 *"
b1 P"
b100010001000100 G
b100010001000100 ]"
b10000 B"
b10000 Q"
b1000000100010001000100 A"
b10101100000010000000000000000100 x
b10101100000010000000000000000100 {
b10 ^
b10 O"
b1 s"
b0 @
b0 =
b0 )"
b1000100010001 h
b1000100010001 \"
b1000100010001 _"
b1000100010001 ^"
b1000 I
b1000000100010001000100 @"
b1000000100010001000100 ["
b10000001000100010001 Z"
b10 e
b10000 1"
b10000 >"
b10000 ?"
1Y
1Y"
b10000 D
b10000 w
b10000 /"
b1100 5
b1100 E
b1100 |
b1100 R"
b1000 U
b1000 W
b1000 !"
b1 S
b1 ~
b1 G"
b1 L"
b1 g"
b0 v
b0 '"
b1 P
b1 o
b0 O
b0 p
b100000000010000001000100010001 6
b100000000010000001000100010001 b
b100000000010000001000100010001 y
b100010001010000 F
b100010001010000 0"
b1100 H
b1100 z
b10 #"
b100 .
1'
#150
0'
#175
b1 l
b1 7"
b0 k
b0 ="
19"
0<"
b1001000 J
b1001000 3"
b1 !#
b1000100010001 <
b1000100010001 K
1M
b10000 G
b10000 ]"
1a"
1j"
b10100 B"
b10100 Q"
b1000000000000000010000 A"
b100 h
b100 \"
b100 _"
b100 ^"
b101011 I
b1000000000000000010000 @"
b1000000000000000010000 ["
b10000000000000000100 Z"
b0 e
b10001 @
b1000100010001 =
b1000100010001 )"
b0 s"
1f"
0X
b100000000010000010001000100010 x
b100000000010000010001000100010 {
b10100 1"
b10100 >"
b10100 ?"
b1 ^
b1 O"
b1 F"
b1 H"
b1 M"
b1 T"
b10101100000010000000000000000100 6
b10101100000010000000000000000100 b
b10101100000010000000000000000100 y
b100000 F
b100000 0"
b10000 H
b10000 z
b10 s
b10 ,"
b1000100010001 v
b1000100010001 '"
b0 P
b0 o
b10 O
b10 p
b1 T
b1 h"
b1 8
b1 N
b1 *"
b1 P"
b0 S
b0 ~
b0 G"
b0 L"
b0 g"
b1 Q
b0 R
b0 }
b10100 D
b10100 w
b10100 /"
b10000 5
b10000 E
b10000 |
b10000 R"
b1000 Z
b1000 &"
b1000 S"
b1 $"
b1 D"
b101 .
1'
#200
07
b1 i
b1 X"
0'
#225
b100 ~"
b110 .
1+
1'
#250
0'
#275
b1 ~"
1$
1{"
b111 .
1'
#300
0'
#325
b1 1#
b1 .#
b1000 .
1'
#350
0'
#375
b10 .#
b1001 .
1'
#400
0'
#425
b11 .#
b1010 .
1'
#450
0'
#475
b100 .#
b1011 .
1'
#500
0'
#525
b101 .#
b1100 .
1'
#550
0'
#575
b110 .#
b1101 .
1'
#600
0'
#625
b10 1#
10#
b1110 .
1'
#650
0'
#675
b11 1#
1"
1-#
00#
b0 .#
b101 y"
b101 $#
b1111 .
b101 !
b101 3
b101 u"
b101 +#
b101 /#
1'
#700
0'
#725
1c"
b0 1#
0"
0-#
b10 ~"
1z"
0$
0{"
b10000 .
1'
#750
0'
#775
b101 ""
b101 i"
b101 }"
0M
b1 y"
b1 $#
b110000000000000000000000 x"
b110000000000000000000000 '#
1`"
1k"
b101 q"
1w"
1l"
1c"
b101 %
b101 2
b101 d"
b101 *#
b101 p"
b101 %#
b100000000000000000000000 o"
b100000000000000000000000 (#
b0 ~"
0z"
b10001 .
1'
#800
0'
#825
b0 l
b0 7"
b10 k
b10 ="
09"
1<"
b0 !#
b0 ""
b0 i"
b0 }"
b1010000 J
b1010000 3"
b101 y"
b101 $#
b10001000 ,#
0w"
b100 <
b100 K
0l"
0c"
b0 q"
b1000100000000 &
b1000100000000 4
b1000100000000 v"
b1000100000000 )#
0a"
0j"
0`"
0k"
b1000100010001000 G
b1000100010001000 ]"
b11000 B"
b11000 Q"
b1000001000100010001000 A"
0n"
b10 ^
b10 O"
b10101100000010000000000000001000 x
b10101100000010000000000000001000 {
b10001 s"
b1000 b"
b1000 ##
b1000 &#
b1000 t"
b100000000000000000000100 x"
b100000000000000000000100 '#
b100 r"
0f"
1X
b100 @
b100 =
b100 )"
b10001000100010 h
b10001000100010 \"
b10001000100010 _"
b10001000100010 ^"
b1000 I
b1000001000100010001000 @"
b1000001000100010001000 ["
b10000010001000100010 Z"
b100 e
b11000 1"
b11000 >"
b11000 ?"
b0 o"
b0 (#
b0 %
b0 2
b0 d"
b0 *#
b0 p"
b0 %#
b1000100010001 8
b1000100010001 N
b1000100010001 *"
b1000100010001 P"
b0 F"
b0 H"
b0 M"
b0 T"
0Y
0Y"
b11000 D
b11000 w
b11000 /"
b10100 5
b10100 E
b10100 |
b10100 R"
b1000100010001 S
b1000100010001 ~
b1000100010001 G"
b1000100010001 L"
b1000100010001 g"
b0 Q
b10 R
b10 }
b0 s
b0 ,"
b100 v
b100 '"
b1 r
b1 N"
b1 P
b1 o
b0 O
b0 p
b100000000010000010001000100010 6
b100000000010000010001000100010 b
b100000000010000010001000100010 y
b1000100010011100 F
b1000100010011100 0"
b10100 H
b10100 z
b101 %"
b101 C"
b0 $"
b0 D"
b0 #"
b10010 .
0+
1'
#850
0'
#875
b1 l
b1 7"
b0 k
b0 ="
19"
0<"
b1001000 J
b1001000 3"
b100010001000100000000000000000000000000000001 !#
1c"
b100010001000100000000000000000000000000000001 y"
b100010001000100000000000000000000000000000001 $#
1`"
1k"
b1 q"
1w"
b10001000100010 <
b10001000100010 K
b0 ,#
1n"
1l"
0M
b1 %
b1 2
b1 d"
b1 *#
b1 p"
b1 %#
b110000000000000000000000 o"
b110000000000000000000000 (#
b100000 G
b100000 ]"
b0 &
b0 4
b0 v"
b0 )#
1a"
1j"
b11100 B"
b11100 Q"
b1000000000000000100000 A"
b1 ^
b1 O"
b1000 h
b1000 \"
b1000 _"
b1000 ^"
b101011 I
b1000000000000000100000 @"
b1000000000000000100000 ["
b10000000000000001000 Z"
b0 e
b100010 @
b10001000100010 =
b10001000100010 )"
b100 s"
b0 b"
b0 ##
b0 &#
b0 t"
b110000000000000000000000 x"
b110000000000000000000000 '#
b0 r"
1f"
0X
b100000000010000011001100110011 x
b100000000010000011001100110011 {
b11100 1"
b11100 >"
b11100 ?"
b1000100010001 F"
b1000100010001 H"
b1000100010001 M"
b1000100010001 T"
1Y
1Y"
b10101100000010000000000000001000 6
b10101100000010000000000000001000 b
b10101100000010000000000000001000 y
b111000 F
b111000 0"
b11000 H
b11000 z
b100 s
b100 ,"
b10001000100010 v
b10001000100010 '"
b0 P
b0 o
b10 O
b10 p
b1000100010001 T
b1000100010001 h"
b1000100010001 8
b1000100010001 N
b1000100010001 *"
b1000100010001 P"
b100 S
b100 ~
b100 G"
b100 L"
b100 g"
b1 Q
b0 R
b0 }
b11100 D
b11100 w
b11100 /"
b11000 5
b11000 E
b11000 |
b11000 R"
b0 %"
b0 C"
b1000100010001 $"
b1000100010001 D"
b10 #"
b10011 .
1'
#900
b1000100010001 i
b1000100010001 X"
0'
#925
b0 l
b0 7"
b10 k
b10 ="
09"
1<"
b0 !#
b1010000 J
b1010000 3"
b101 y"
b101 $#
b100010001 ,#
0w"
b1000 <
b1000 K
0n"
0l"
0c"
b0 q"
b0 o"
b0 (#
b10001000100000 &
b10001000100000 4
b10001000100000 v"
b10001000100000 )#
0a"
0j"
0`"
0k"
b1100110011001100 G
b1100110011001100 ]"
b100000 B"
b100000 Q"
b1000001100110011001100 A"
b10 ^
b10 O"
b10101100000010000000000000001100 x
b10101100000010000000000000001100 {
b10 s"
b10001 b"
b10001 ##
b10001 &#
b10001 t"
b100000000000000000001000 x"
b100000000000000000001000 '#
b1000 r"
0f"
1X
b1000 @
b1000 =
b1000 )"
b11001100110011 h
b11001100110011 \"
b11001100110011 _"
b11001100110011 ^"
b1000 I
b1000001100110011001100 @"
b1000001100110011001100 ["
b10000011001100110011 Z"
b110 e
b100000 1"
b100000 >"
b100000 ?"
b0 %
b0 2
b0 d"
b0 *#
b0 p"
b0 %#
b10001000100010 8
b10001000100010 N
b10001000100010 *"
b10001000100010 P"
b100 F"
b100 H"
b100 M"
b100 T"
0Y
0Y"
b100000 D
b100000 w
b100000 /"
b11100 5
b11100 E
b11100 |
b11100 R"
b10001000100010 S
b10001000100010 ~
b10001000100010 G"
b10001000100010 L"
b10001000100010 g"
b0 Q
b10 R
b10 }
b0 s
b0 ,"
b1000 v
b1000 '"
b1000100010001 r
b1000100010001 N"
b1 P
b1 o
b0 O
b0 p
b100000000010000011001100110011 6
b100000000010000011001100110011 b
b100000000010000011001100110011 y
b1100110011101000 F
b1100110011101000 0"
b11100 H
b11100 z
b100 $"
b100 D"
b0 #"
b10100 .
1'
#950
0'
#975
b1 l
b1 7"
b0 k
b0 ="
19"
0<"
b1001000 J
b1001000 3"
b100010001000100000000000000000000100010001000100000000000000000000000000000001 !#
1c"
b100010001000100000000000000000000100010001000100000000000000000000000000000001 y"
b100010001000100000000000000000000100010001000100000000000000000000000000000001 $#
1`"
1k"
b100010001000100000000000000000000000000000001 q"
1w"
b11001100110011 <
b11001100110011 K
b0 ,#
1n"
1l"
0M
b100010001000100000000000000000000000000000001 %
b100010001000100000000000000000000000000000001 2
b100010001000100000000000000000000000000000001 d"
b100010001000100000000000000000000000000000001 *#
b100010001000100000000000000000000000000000001 p"
b100010001000100000000000000000000000000000001 %#
b110000000000000000000000 o"
b110000000000000000000000 (#
b110000 G
b110000 ]"
b0 &
b0 4
b0 v"
b0 )#
1a"
1j"
b100100 B"
b100100 Q"
b1000000000000000110000 A"
b1 ^
b1 O"
b1100 h
b1100 \"
b1100 _"
b1100 ^"
b101011 I
b1000000000000000110000 @"
b1000000000000000110000 ["
b10000000000000001100 Z"
b0 e
b110011 @
b11001100110011 =
b11001100110011 )"
b1000 s"
b0 b"
b0 ##
b0 &#
b0 t"
b110000000000000000000000 x"
b110000000000000000000000 '#
b0 r"
1f"
0X
b100000000010000100010001000100 x
b100000000010000100010001000100 {
b100100 1"
b100100 >"
b100100 ?"
b10001000100010 F"
b10001000100010 H"
b10001000100010 M"
b10001000100010 T"
1Y
1Y"
b10101100000010000000000000001100 6
b10101100000010000000000000001100 b
b10101100000010000000000000001100 y
b1010000 F
b1010000 0"
b100000 H
b100000 z
b110 s
b110 ,"
b11001100110011 v
b11001100110011 '"
b0 P
b0 o
b10 O
b10 p
b10001000100010 T
b10001000100010 h"
b10001000100010 8
b10001000100010 N
b10001000100010 *"
b10001000100010 P"
b1000 S
b1000 ~
b1000 G"
b1000 L"
b1000 g"
b1 Q
b0 R
b0 }
b100100 D
b100100 w
b100100 /"
b100000 5
b100000 E
b100000 |
b100000 R"
b10001000100010 $"
b10001000100010 D"
b10 #"
b10101 .
1'
#1000
b10001000100010 i
b10001000100010 X"
0'
#1025
b0 l
b0 7"
b10 k
b10 ="
09"
1<"
b0 !#
b1010000 J
b1010000 3"
b101 y"
b101 $#
b110011001 ,#
0w"
b1100 <
b1100 K
0n"
0l"
0c"
b0 q"
b0 o"
b0 (#
b11001100100000 &
b11001100100000 4
b11001100100000 v"
b11001100100000 )#
0a"
0j"
0`"
0k"
b10001000100010000 G
b10001000100010000 ]"
b101000 B"
b101000 Q"
b1000010001000100010000 A"
b10 ^
b10 O"
b10101100000010000000000000010000 x
b10101100000010000000000000010000 {
b10011 s"
b11001 b"
b11001 ##
b11001 &#
b11001 t"
b100000000000000000001100 x"
b100000000000000000001100 '#
b1100 r"
0f"
1X
b1100 @
b1100 =
b1100 )"
b100010001000100 h
b100010001000100 \"
b100010001000100 _"
b100010001000100 ^"
b1000 I
b1000010001000100010000 @"
b1000010001000100010000 ["
b10000100010001000100 Z"
b1000 e
b101000 1"
b101000 >"
b101000 ?"
b0 %
b0 2
b0 d"
b0 *#
b0 p"
b0 %#
b11001100110011 8
b11001100110011 N
b11001100110011 *"
b11001100110011 P"
b1000 F"
b1000 H"
b1000 M"
b1000 T"
0Y
0Y"
b101000 D
b101000 w
b101000 /"
b100100 5
b100100 E
b100100 |
b100100 R"
b11001100110011 S
b11001100110011 ~
b11001100110011 G"
b11001100110011 L"
b11001100110011 g"
b0 Q
b10 R
b10 }
b0 s
b0 ,"
b1100 v
b1100 '"
b10001000100010 r
b10001000100010 N"
b1 P
b1 o
b0 O
b0 p
b100000000010000100010001000100 6
b100000000010000100010001000100 b
b100000000010000100010001000100 y
b10001000100110100 F
b10001000100110100 0"
b100100 H
b100100 z
b1000 $"
b1000 D"
b0 #"
b10110 .
1'
#1050
0'
