project1/code_pipeline/gg.vcd
$date
	Sun Dec 10 12:37:20 2017
$end
$version
	Icarus Verilog
$end
$timescale
	1s
$end
$scope module TestBench $end
$var reg 1 ! Clk $end
$var reg 1 " Reset $end
$var reg 1 # Start $end
$var integer 32 $ counter [31:0] $end
$var integer 32 % flush [31:0] $end
$var integer 32 & i [31:0] $end
$var integer 32 ' outfile [31:0] $end
$var integer 32 ( stall [31:0] $end
$scope module CPU $end
$var wire 1 ! clk_i $end
$var wire 1 " rst_i $end
$var wire 1 # start_i $end
$var wire 32 ) inst_addr [31:0] $end
$var wire 32 * inst [31:0] $end
$var wire 1 + Zero $end
$var wire 32 , MUXforward2_data [31:0] $end
$var wire 1 - Jump $end
$var wire 1 . Branch $end
$scope module ALU $end
$var wire 1 / Zero_o $end
$var wire 32 0 data_o [31:0] $end
$var wire 32 1 data2_i [31:0] $end
$var wire 32 2 data1_i [31:0] $end
$var wire 3 3 ALUCtrl_i [2:0] $end
$upscope $end
$scope module ALU_Control $end
$var wire 6 4 funct_i [5:0] $end
$var wire 2 5 ALUOp_i [1:0] $end
$var wire 3 6 ALUCtrl_o [2:0] $end
$upscope $end
$scope module Add_PC $end
$var wire 32 7 data2_in [31:0] $end
$var wire 32 8 data_o [31:0] $end
$var wire 32 9 data1_in [31:0] $end
$upscope $end
$scope module Add_address $end
$var wire 32 : data_o [31:0] $end
$var wire 32 ; data2_in [31:0] $end
$var wire 32 < data1_in [31:0] $end
$upscope $end
$scope module Control $end
$var wire 6 = Op_i [5:0] $end
$var reg 1 . branch_o $end
$var reg 10 > ctrl_signal_o [9:0] $end
$var reg 1 - jump_o $end
$upscope $end
$scope module DataMemory $end
$var wire 1 ! clk_i $end
$var wire 32 ? addr_i [31:0] $end
$var wire 32 @ Writedata_i [31:0] $end
$var wire 1 A MemWrite_i $end
$var wire 1 B MemRead_i $end
$var reg 32 C Readdata_o [31:0] $end
$upscope $end
$scope module EXMEM $end
$var wire 32 D addr_i [31:0] $end
$var wire 1 ! clk_i $end
$var wire 1 " rst_i $end
$var wire 5 E rd_i [4:0] $end
$var wire 32 F data_i [31:0] $end
$var wire 2 G WB_i [1:0] $end
$var wire 2 H M_i [1:0] $end
$var reg 2 I M_o [1:0] $end
$var reg 2 J WB_o [1:0] $end
$var reg 32 K addr_o [31:0] $end
$var reg 32 L data_o [31:0] $end
$var reg 5 M rd_o [4:0] $end
$upscope $end
$scope module Flush $end
$var wire 1 . Branch_i $end
$var wire 1 - Jump_i $end
$var wire 1 + Zero_i $end
$var wire 1 N flush_o $end
$upscope $end
$scope module ForwardUnit $end
$var wire 5 O EXMEM_RD_i [4:0] $end
$var wire 1 P EXMEM_RegWrite_i $end
$var wire 1 Q MEMWB_RegWrite_i $end
$var wire 5 R MEMWB_RD_i [4:0] $end
$var wire 5 S IDEX_RT_i [4:0] $end
$var wire 5 T IDEX_RS_i [4:0] $end
$var reg 2 U Forward1_o [1:0] $end
$var reg 2 V Forward2_o [1:0] $end
$upscope $end
$scope module HazardDetection $end
$var wire 1 W IFIDhazard_o $end
$var wire 1 X MUX_Control_hazard_o $end
$var wire 5 Y rt_i [4:0] $end
$var wire 32 Z inst_i [31:0] $end
$var wire 1 [ hazard_o $end
$var wire 1 \ MemRead_i $end
$upscope $end
$scope module IDEX $end
$var wire 1 ! clk_i $end
$var wire 5 ] rd_i [4:0] $end
$var wire 5 ^ rs_i [4:0] $end
$var wire 1 " rst_i $end
$var wire 5 _ rt_i [4:0] $end
$var wire 32 ` signextend_i [31:0] $end
$var wire 32 a data2_i [31:0] $end
$var wire 32 b data1_i [31:0] $end
$var wire 2 c WB_i [1:0] $end
$var wire 2 d M_i [1:0] $end
$var wire 4 e EX_i [3:0] $end
$var reg 4 f EX_o [3:0] $end
$var reg 2 g M_o [1:0] $end
$var reg 2 h WB_o [1:0] $end
$var reg 32 i data1_o [31:0] $end
$var reg 32 j data2_o [31:0] $end
$var reg 5 k rd_o [4:0] $end
$var reg 5 l rs_o [4:0] $end
$var reg 5 m rt_o [4:0] $end
$var reg 32 n signextend_o [31:0] $end
$upscope $end
$scope module IFID $end
$var wire 1 ! clk_i $end
$var wire 1 N flush_i $end
$var wire 1 W hazard_i $end
$var wire 32 o pc_i [31:0] $end
$var wire 1 " rst_i $end
$var wire 32 p inst_i [31:0] $end
$var reg 32 q inst_o [31:0] $end
$var reg 32 r pc_o [31:0] $end
$upscope $end
$scope module Instruction_Memory $end
$var wire 32 s instr_o [31:0] $end
$var wire 32 t addr_i [31:0] $end
$upscope $end
$scope module MEMWB $end
$var wire 2 u WB_i [1:0] $end
$var wire 32 v addr_i [31:0] $end
$var wire 1 ! clk_i $end
$var wire 32 w data_i [31:0] $end
$var wire 5 x rd_i [4:0] $end
$var wire 1 " rst_i $end
$var reg 2 y WB_o [1:0] $end
$var reg 32 z addr_o [31:0] $end
$var reg 32 { data_o [31:0] $end
$var reg 5 | rd_o [4:0] $end
$upscope $end
$scope module MUX32 $end
$var wire 32 } data2_i [31:0] $end
$var wire 1 ~ select_i $end
$var wire 32 !" data_o [31:0] $end
$var wire 32 "" data1_i [31:0] $end
$upscope $end
$scope module MUX5 $end
$var wire 5 #" data1_i [4:0] $end
$var wire 5 $" data2_i [4:0] $end
$var wire 1 %" select_i $end
$var wire 5 &" data_o [4:0] $end
$upscope $end
$scope module MUX_Add $end
$var wire 1 + Zero_i $end
$var wire 32 '" data1_i [31:0] $end
$var wire 32 (" data2_i [31:0] $end
$var wire 1 . select_i $end
$var reg 32 )" data_o [31:0] $end
$var reg 1 *" select $end
$upscope $end
$scope module MUX_Control $end
$var wire 10 +" ctrl_sig_i [9:0] $end
$var wire 1 X hazard_i $end
$var reg 2 ," ALUOp [1:0] $end
$var reg 1 -" ALUSrc $end
$var reg 4 ." EX_o [3:0] $end
$var reg 2 /" M_o [1:0] $end
$var reg 1 0" MemRead $end
$var reg 1 1" MemWrite $end
$var reg 1 2" MemtoReg $end
$var reg 1 3" RegDst $end
$var reg 1 4" RegWrite $end
$var reg 2 5" WB_o [1:0] $end
$upscope $end
$scope module MUX_Jump $end
$var wire 32 6" data1_32_i [31:0] $end
$var wire 32 7" data2_i [31:0] $end
$var wire 1 - select_i $end
$var wire 28 8" data1_28_i [27:0] $end
$var reg 32 9" data1 [31:0] $end
$var reg 32 :" data_o [31:0] $end
$upscope $end
$scope module MUX_Write $end
$var wire 32 ;" data1_i [31:0] $end
$var wire 32 <" data2_i [31:0] $end
$var wire 1 =" select_i $end
$var wire 32 >" data_o [31:0] $end
$upscope $end
$scope module MUXforward_1 $end
$var wire 32 ?" EXMEM_addr_i [31:0] $end
$var wire 32 @" MEMWB_data_i [31:0] $end
$var wire 32 A" data_i [31:0] $end
$var wire 2 B" select_i [1:0] $end
$var reg 32 C" data_o [31:0] $end
$upscope $end
$scope module MUXforward_2 $end
$var wire 32 D" EXMEM_addr_i [31:0] $end
$var wire 32 E" MEMWB_data_i [31:0] $end
$var wire 32 F" data_i [31:0] $end
$var wire 2 G" select_i [1:0] $end
$var reg 32 H" data_o [31:0] $end
$upscope $end
$scope module PC $end
$var wire 1 ! clk_i $end
$var wire 1 [ hazard_i $end
$var wire 32 I" pc_i [31:0] $end
$var wire 1 " rst_i $end
$var wire 1 # start_i $end
$var reg 32 J" pc_o [31:0] $end
$upscope $end
$scope module Registers $end
$var wire 5 K" RDaddr_i [4:0] $end
$var wire 32 L" RDdata_i [31:0] $end
$var wire 5 M" RSaddr_i [4:0] $end
$var wire 32 N" RSdata_o [31:0] $end
$var wire 5 O" RTaddr_i [4:0] $end
$var wire 32 P" RTdata_o [31:0] $end
$var wire 1 Q" RegWrite_i $end
$var wire 1 ! clk_i $end
$upscope $end
$scope module ShiftLeft26 $end
$var wire 26 R" data_i [25:0] $end
$var wire 28 S" data_o [27:0] $end
$upscope $end
$scope module ShiftLeft32 $end
$var wire 32 T" data_i [31:0] $end
$var reg 32 U" data_o [31:0] $end
$upscope $end
$scope module Sign_Extend $end
$var wire 16 V" data_i [15:0] $end
$var wire 32 W" data_o [31:0] $end
$upscope $end
$upscope $end
$upscope $end
$enddefinitions $end
#12
$dumpvars
b0 W"
b0 V"
bx0000 U"
b0 T"
b0 S"
b0 R"
0Q"
b0 P"
b0 O"
b0 N"
b0 M"
b0 L"
b0 K"
b0 J"
b100 I"
b0 H"
b0 G"
b0 F"
b0 E"
b0 D"
b0 C"
b0 B"
b0 A"
b0 @"
b0 ?"
b0 >"
0="
b0 <"
b0 ;"
b100 :"
b0 9"
b0 8"
b100 7"
b100 6"
b10 5"
14"
13"
02"
01"
00"
b0 /"
b111 ."
0-"
b11 ,"
b1110010000 +"
0*"
b100 )"
bx ("
b100 '"
b0 &"
0%"
b0 $"
b0 #"
b0 ""
b0 !"
0~
b0 }
b0 |
b0 {
b0 z
b0 y
b0 x
bx w
b0 v
b0 u
b0 t
b100000000001000000000000000000 s
b0 r
b0 q
b100000000001000000000000000000 p
b100 o
b0 n
b0 m
b0 l
b0 k
b0 j
b0 i
b0 h
b0 g
b0 f
b111 e
b0 d
b10 c
b0 b
b0 a
b0 `
b0 _
b0 ^
b0 ]
0\
0[
b0 Z
b0 Y
0X
0W
b0 V
b0 U
b0 T
b0 S
b0 R
0Q
0P
b0 O
0N
b0 M
b0 L
b0 K
b0 J
b0 I
b0 H
b0 G
b0 F
b0 E
b0 D
bx C
0B
0A
b0 @
b0 ?
b1110010000 >
b0 =
b0 <
bx0000 ;
bx :
b0 9
b100 8
b100 7
b10 6
b0 5
b0 4
b10 3
b0 2
b0 1
b0 0
z/
0.
0-
b0 ,
1+
b0 *
b0 )
b0 (
b11 '
b100000 &
b0 %
b0 $
1#
1"
1!
$end
#25
b1 $
0!
#50
b1000 e
b1000 ."
1-"
03"
b0 ,"
b1010000 >
b1010000 +"
b0 3
b0 6
b1000 :"
b1000 I"
b100000000000000000000 9"
b100000000010000000000000000000 p
b100000000010000000000000000000 s
b1000 )"
b1000 6"
b1000 7"
1%"
b11 5
b1000 =
b100 O"
b100000000000000000000 8"
b100000000000000000000 S"
b1000000000000000000 R"
b100 _
bx {
bx ;"
b1000 8
b1000 o
b1000 '"
b100 )
b100 9
b100 t
b100 J"
b111 f
b10 G
b10 h
b100000000001000000000000000000 *
b100000000001000000000000000000 Z
b100000000001000000000000000000 q
b100 <
b100 r
1!
#75
b10 $
0!
#100
b10 3
b10 6
b100 E
b100 &"
b1100 :"
b1100 I"
b1000000000000000000000 9"
b1000 O"
b1000000000000000000000 8"
b1000000000000000000000 S"
b10000000000000000000 R"
b1000 _
0%"
1~
b0 5
1P
b100000000010010000000000000001 p
b100000000010010000000000000001 s
b1100 )"
b1100 6"
b1100 7"
b100000000010000000000000000000 *
b100000000010000000000000000000 Z
b100000000010000000000000000000 q
b1000 <
b1000 r
b100 S
b100 Y
b100 m
b100 #"
b1000 f
b10 J
b10 u
b1100 8
b1100 o
b1100 '"
b1000 )
b1000 9
b1000 t
b1000 J"
1!
#125
b11 $
0!
#150
bx000000 ;
bx000000 U"
b10000 :"
b10000 I"
b1001000000000000000100 9"
1Q
1Q"
b100000000100010000000000000000 p
b100000000100010000000000000000 s
b10000 )"
b10000 6"
b10000 7"
b1000 E
b1000 &"
b1 `
b1 T"
b1 W"
b1 V"
b1001 O"
b1001000000000000000100 8"
b1001000000000000000100 S"
b10010000000000000001 R"
b1001 _
b10 y
b10000 8
b10000 o
b10000 '"
b1100 )
b1100 9
b1100 t
b1100 J"
b100 M
b100 O
b100 x
b1000 S
b1000 Y
b1000 m
b1000 #"
b100000000010010000000000000001 *
b100000000010010000000000000001 Z
b100000000010010000000000000001 q
b1100 <
b1100 r
1!
#175
b100 $
0!
#200
b1 0
b1 D
bx00000000 ;
bx00000000 U"
b10100 :"
b10100 I"
b10001000000000000000000 9"
b0 `
b0 T"
b0 W"
b0 V"
b10001 O"
b10001000000000000000000 8"
b10001000000000000000000 S"
b100010000000000000000 R"
b10001 _
b1001 E
b1001 &"
b1 4
b1 1
b1 !"
b100000000100100000000000000001 p
b100000000100100000000000000001 s
b10100 )"
b10100 6"
b10100 7"
b100 R
b100 |
b100 K"
b100000000100010000000000000000 *
b100000000100010000000000000000 Z
b100000000100010000000000000000 q
b10000 <
b10000 r
b1001 S
b1001 Y
b1001 m
b1001 #"
b1 n
b1 }
b1000 M
b1000 O
b1000 x
b10100 8
b10100 o
b10100 '"
b10000 )
b10000 9
b10000 t
b10000 J"
1!
#225
b101 $
0!
#250
b0 0
b0 D
bx0000000000 ;
bx0000000000 U"
b11000 :"
b11000 I"
b10010000000000000000100 9"
b10001100100100000000000000000000 p
b10001100100100000000000000000000 s
b11000 )"
b11000 6"
b11000 7"
b10001 E
b10001 &"
b0 4
b0 1
b0 !"
b1 `
b1 T"
b1 W"
b1 V"
b10010 O"
b10010000000000000000100 8"
b10010000000000000000100 S"
b100100000000000000001 R"
b10010 _
b1000 R
b1000 |
b1000 K"
b11000 8
b11000 o
b11000 '"
b10100 )
b10100 9
b10100 t
b10100 J"
b1001 M
b1001 O
b1001 x
b1 ?
b1 K
b1 v
b1 ?"
b1 D"
b10001 S
b10001 Y
b10001 m
b10001 #"
b0 n
b0 }
b100000000100100000000000000001 *
b100000000100100000000000000001 Z
b100000000100100000000000000001 q
b10100 <
b10100 r
1!
#275
b110 $
0!
#300
b10 d
b10 /"
b11 c
b11 5"
10"
12"
b1110100 >
b1110100 +"
b1 0
b1 D
bx000000000000 ;
bx000000000000 U"
b11100 :"
b11100 I"
b10010000000000000000000000 9"
b1 >"
b1 @"
b1 E"
b1 L"
b0 `
b0 T"
b0 W"
b0 V"
b100011 =
b10000 O"
b100 M"
b10010000000000000000000000 8"
b10010000000000000000000000 S"
b100100000000000000000000 R"
b10000 _
b100 ^
b10010 E
b10010 &"
b1 4
b1 1
b1 !"
b100010000101000000000000000000 p
b100010000101000000000000000000 s
b11100 )"
b11100 6"
b11100 7"
b1001 R
b1001 |
b1001 K"
b1 z
b1 <"
b10001100100100000000000000000000 *
b10001100100100000000000000000000 Z
b10001100100100000000000000000000 q
b11000 <
b11000 r
b10010 S
b10010 Y
b10010 m
b10010 #"
b1 n
b1 }
b10001 M
b10001 O
b10001 x
b0 ?
b0 K
b0 v
b0 ?"
b0 D"
b11100 8
b11100 o
b11100 '"
b11000 )
b11000 9
b11000 t
b11000 J"
1!
#325
b111 $
0!
#350
b0 e
b0 ."
b0 d
b0 /"
b0 c
b0 5"
b1010000 >
b1010000 +"
b0 0
b0 D
1X
1W
1[
b100000 :"
b100000 I"
b1000010100000000000000000000 9"
b0 >"
b0 @"
b0 E"
b0 L"
b10000010011000000000100010 p
b10000010011000000000100010 s
b100000 )"
b100000 6"
b100000 7"
b10000 E
b10000 &"
b0 4
b0 1
b0 !"
1\
b1000 =
b10100 O"
b10000 M"
b1000010100000000000000000000 8"
b1000010100000000000000000000 S"
b10000101000000000000000000 R"
b10100 _
b10000 ^
b10001 R
b10001 |
b10001 K"
b0 z
b0 <"
b100000 8
b100000 o
b100000 '"
b11100 )
b11100 9
b11100 t
b11100 J"
b10010 M
b10010 O
b10010 x
b1 ?
b1 K
b1 v
b1 ?"
b1 D"
b10000 S
b10000 Y
b10000 m
b10000 #"
b100 T
b100 l
b0 n
b0 }
b10 H
b10 g
b11 G
b11 h
b100010000101000000000000000000 *
b100010000101000000000000000000 Z
b100010000101000000000000000000 q
b11100 <
b11100 r
1!
#375
b1000 $
b1 (
0!
#400
b1000 e
b1000 ."
b10 c
b10 5"
b101 C
b101 w
00"
02"
0X
0W
0[
b1 >"
b1 @"
b1 E"
b1 L"
b10100 E
b10100 &"
0~
0\
b10 U
b10 B"
1B
b10010 R
b10010 |
b10010 K"
b1 z
b1 <"
b10100 S
b10100 Y
b10100 m
b10100 #"
b10000 T
b10000 l
b0 f
b0 H
b0 g
b0 G
b0 h
b10000 M
b10000 O
b10000 x
b0 ?
b0 K
b0 v
b0 ?"
b0 D"
b10 I
b11 J
b11 u
1!
#425
b1001 $
0!
#450
b111 e
b111 ."
0-"
13"
b11 ,"
b1110010000 >
b1110010000 +"
b101 0
b101 D
b101 2
b101 C"
bx0000000000000000 ;
bx0000000000000000 U"
0+
b100100 :"
b100100 I"
b1000001001100000000010001000 9"
b101 >"
b101 @"
b101 E"
b101 L"
1="
b10001100101000100000100000 p
b10001100101000100000100000 s
b100100 )"
b100100 6"
b100100 7"
b1 U
b1 B"
0B
0P
1~
b11111111111111111000000000100010 `
b11111111111111111000000000100010 T"
b11111111111111111000000000100010 W"
b1000000000100010 V"
b0 =
b1 a
b1 P"
b1001 O"
b1000001001100000000010001000 8"
b1000001001100000000010001000 S"
b10000010011000000000100010 R"
b10000 ]
b1001 _
b10000 R
b10000 |
b10000 K"
b101 {
b101 ;"
b0 z
b0 <"
b11 y
b100100 8
b100100 o
b100100 '"
b100000 )
b100000 9
b100000 t
b100000 J"
b10100 M
b10100 O
b10100 x
b0 I
b0 J
b0 u
b1000 f
b10 G
b10 h
b10000010011000000000100010 *
b10000010011000000000100010 Z
b10000010011000000000100010 q
b100000 <
b100000 r
1!
#475
b101 b
b101 N"
b1010 $
0!
#500
b100 0
b100 D
b110 3
b110 6
b0 >"
b0 @"
b0 E"
b0 L"
bx000000000000000000 ;
bx000000000000000000 U"
b101000 :"
b101000 I"
b1000110010100010000010000000 9"
0Q
0="
0Q"
b11111111111111111000100000100000 `
b11111111111111111000100000100000 T"
b11111111111111111000100000100000 W"
b1000100000100000 V"
b10010 O"
b0 b
b0 N"
b10001 M"
b1000110010100010000010000000 8"
b1000110010100010000010000000 S"
b10001100101000100000100000 R"
b10001 ]
b10010 _
b10001 ^
b10000 E
b10000 &"
b0 U
b0 B"
b100010 4
b1 1
b1 !"
1%"
0~
b11 5
1P
b100010010100110000000000000000 p
b100010010100110000000000000000 s
b101000 )"
b101000 6"
b101000 7"
b10100 R
b10100 |
b10100 K"
b0 y
b10001100101000100000100000 *
b10001100101000100000100000 Z
b10001100101000100000100000 q
b100100 <
b100100 r
b10000 k
b10000 $"
b1001 S
b1001 Y
b1001 m
b1001 #"
b11111111111111111000000000100010 n
b11111111111111111000000000100010 }
b1 ,
b1 F
b1 ""
b1 H"
b1 j
b1 F"
b101 i
b101 A"
b111 f
b101 ?
b101 K
b101 v
b101 ?"
b101 D"
b10 J
b10 u
b101000 8
b101000 o
b101000 '"
b100100 )
b100100 9
b100100 t
b100100 J"
1!
#525
b1011 $
0!
#550
b1000 e
b1000 ."
1-"
03"
b0 ,"
b1010000 >
b1010000 +"
b1 0
b1 D
b10 3
b10 6
bx0000000000000000000000 ;
bx0000000000000000000000 U"
b101100 :"
b101100 I"
b1001010011000000000000000000 9"
b101 >"
b101 @"
b101 E"
b101 L"
1Q
1Q"
b100010001100100000000000000000 p
b100010001100100000000000000000 s
b101100 )"
b101100 6"
b101100 7"
b10001 E
b10001 &"
b100000 4
b0 `
b0 T"
b0 W"
b0 V"
b1000 =
b0 a
b0 P"
b10011 O"
b1 b
b1 N"
b10010 M"
b1001010011000000000000000000 8"
b1001010011000000000000000000 S"
b10010100110000000000000000 R"
b0 ]
b10011 _
b10010 ^
b101 z
b101 <"
b10 y
b101100 8
b101100 o
b101100 '"
b101000 )
b101000 9
b101000 t
b101000 J"
b10000 M
b10000 O
b10000 x
b1 @
b1 L
b100 ?
b100 K
b100 v
b100 ?"
b100 D"
b10001 k
b10001 $"
b10010 S
b10010 Y
b10010 m
b10010 #"
b10001 T
b10001 l
b11111111111111111000100000100000 n
b11111111111111111000100000100000 }
b0 2
b0 C"
b0 i
b0 A"
b100010010100110000000000000000 *
b100010010100110000000000000000 Z
b100010010100110000000000000000 q
b101000 <
b101000 r
1!
#575
b1100 $
0!
#600
b1 0
b1 D
b10 3
b10 6
b110000 :"
b110000 I"
b1000110010000000000000000000 9"
b100 >"
b100 @"
b100 E"
b100 L"
b1 a
b1 P"
b10010 O"
b0 b
b0 N"
b10001 M"
b1000110010000000000000000000 8"
b1000110010000000000000000000 S"
b10001100100000000000000000 R"
b10010 _
b10001 ^
b10011 E
b10011 &"
b0 4
b0 1
b0 !"
0%"
1~
b0 5
b100010011100010000000000000000 p
b100010011100010000000000000000 s
b110000 )"
b110000 6"
b110000 7"
b10000 R
b10000 |
b10000 K"
b100 z
b100 <"
b100010001100100000000000000000 *
b100010001100100000000000000000 Z
b100010001100100000000000000000 q
b101100 <
b101100 r
b0 k
b0 $"
b10011 S
b10011 Y
b10011 m
b10011 #"
b10010 T
b10010 l
b0 n
b0 }
b0 ,
b0 F
b0 ""
b0 H"
b0 j
b0 F"
b1 2
b1 C"
b1 i
b1 A"
b1000 f
b10001 M
b10001 O
b10001 x
b1 ?
b1 K
b1 v
b1 ?"
b1 D"
b110000 8
b110000 o
b110000 '"
b101100 )
b101100 9
b101100 t
b101100 J"
1!
#625
b1101 $
0!
#650
b1 0
b1 D
1+
b110100 :"
b110100 I"
b1001110001000000000000000000 9"
b1 >"
b1 @"
b1 E"
b1 L"
b10010000010000000000000000001 p
b10010000010000000000000000001 s
b110100 )"
b110100 6"
b110100 7"
b10010 E
b10010 &"
b1 U
b1 B"
b0 a
b0 P"
b10001 O"
b10011 M"
b1001110001000000000000000000 8"
b1001110001000000000000000000 S"
b10011100010000000000000000 R"
b10001 _
b10011 ^
b10001 R
b10001 |
b10001 K"
b1 z
b1 <"
b110100 8
b110100 o
b110100 '"
b110000 )
b110000 9
b110000 t
b110000 J"
b10011 M
b10011 O
b10011 x
b0 @
b0 L
b10010 S
b10010 Y
b10010 m
b10010 #"
b10001 T
b10001 l
b1 ,
b1 F
b1 ""
b1 H"
b1 j
b1 F"
b1 2
b1 C"
b0 i
b0 A"
b100010011100010000000000000000 *
b100010011100010000000000000000 Z
b100010011100010000000000000000 q
b110000 <
b110000 r
1!
#675
0+
b1 a
b1 P"
b1110 $
0!
#700
b10 e
b10 ."
b0 c
b0 5"
04"
0-"
b1 ,"
b100000010 >
b100000010 +"
bx000000000000000000000000 ;
bx000000000000000000000000 U"
1.
b111000 :"
b111000 I"
b1000001000000000000000000100 9"
b1 `
b1 T"
b1 W"
b1 V"
b100 =
b0 a
b0 P"
b1000 O"
b100 b
b100 N"
b10000 M"
b1000001000000000000000000100 8"
b1000001000000000000000000100 S"
b10000010000000000000000001 R"
b1000 _
b10000 ^
b10001 E
b10001 &"
b1 U
b1 B"
b1000000000000000000000000111 p
b1000000000000000000000000111 s
b111000 )"
b111000 6"
b111000 7"
b10011 R
b10011 |
b10011 K"
b10010000010000000000000000001 *
b10010000010000000000000000001 Z
b10010000010000000000000000001 q
b110100 <
b110100 r
b10001 S
b10001 Y
b10001 m
b10001 #"
b10011 T
b10011 l
b10010 M
b10010 O
b10010 x
b1 @
b1 L
b111000 8
b111000 o
b111000 '"
b110100 )
b110100 9
b110100 t
b110100 J"
1!
#725
b1111 $
0!
#750
b0 e
b0 ."
b0 ,"
b1 >
b1 +"
b110 3
b110 6
b100 0
b100 D
1N
b100 2
b100 C"
bx00000000000000000000000000 ;
bx00000000000000000000000000 U"
1-
0.
1+
b11100 :"
b11100 I"
b11100 9"
b10101100100100010000000000000100 p
b10101100100100010000000000000100 s
b111100 )"
b111100 6"
b111100 7"
b1000 E
b1000 &"
b0 U
b0 B"
b1 4
b0 1
b0 !"
0~
b1 5
b111 `
b111 T"
b111 W"
b111 V"
b10 =
b0 O"
b0 b
b0 N"
b0 M"
b11100 8"
b11100 S"
b111 R"
b0 _
b0 ^
b10010 R
b10010 |
b10010 K"
b111100 8
b111100 o
b111100 '"
b111000 )
b111000 9
b111000 t
b111000 J"
b10001 M
b10001 O
b10001 x
b1000 S
b1000 Y
b1000 m
b1000 #"
b10000 T
b10000 l
b1 n
b1 }
b0 ,
b0 F
b0 ""
b0 H"
b0 j
b0 F"
b100 i
b100 A"
b10 f
b0 G
b0 h
b1000000000000000000000000111 *
b1000000000000000000000000111 Z
b1000000000000000000000000111 q
b111000 <
b111000 r
1!
#775
b10000 $
b1 %
0!
#800
b111 e
b111 ."
b10 c
b10 5"
14"
13"
b11 ,"
b1110010000 >
b1110010000 +"
b10 3
b10 6
b0 0
b0 D
0N
bx0000000000000000000000000000 ;
bx0000000000000000000000000000 U"
0-
b100000 :"
b100000 I"
b0 9"
b0 `
b0 T"
b0 W"
b0 V"
b0 =
b0 8"
b0 S"
b0 R"
b0 E
b0 &"
b111 4
b0 5
0P
b10000010011000000000100010 p
b10000010011000000000100010 s
b100000 )"
b100000 6"
b100000 7"
b10001 R
b10001 |
b10001 K"
b0 *
b0 Z
b0 q
b0 <
b0 r
b0 S
b0 Y
b0 m
b0 #"
b0 T
b0 l
b111 n
b111 }
b0 2
b0 C"
b0 i
b0 A"
b0 f
b1000 M
b1000 O
b1000 x
b0 @
b0 L
b100 ?
b100 K
b100 v
b100 ?"
b100 D"
b0 J
b0 u
b100000 8
b100000 o
b100000 '"
b11100 )
b11100 9
b11100 t
b11100 J"
1!
#825
b10001 $
0!
#850
b0 3
b0 6
b100000 :
b100000 ("
b0 ;
b0 U"
0+
b100100 :"
b100100 I"
b1000001001100000000010001000 9"
b100 >"
b100 @"
b100 E"
b100 L"
0Q
0Q"
b10001100101000100000100000 p
b10001100101000100000100000 s
b100100 )"
b100100 6"
b100100 7"
b0 4
1%"
b11 5
b11111111111111111000000000100010 `
b11111111111111111000000000100010 T"
b11111111111111111000000000100010 W"
b1000000000100010 V"
b1 a
b1 P"
b1001 O"
b100 b
b100 N"
b10000 M"
b1000001001100000000010001000 8"
b1000001001100000000010001000 S"
b10000010011000000000100010 R"
b10000 ]
b1001 _
b10000 ^
b1000 R
b1000 |
b1000 K"
b100 z
b100 <"
b0 y
b100100 8
b100100 o
b100100 '"
b100000 )
b100000 9
b100000 t
b100000 J"
b0 M
b0 O
b0 x
b0 ?
b0 K
b0 v
b0 ?"
b0 D"
b0 n
b0 }
b111 f
b10 G
b10 h
b10000010011000000000100010 *
b10000010011000000000100010 Z
b10000010011000000000100010 q
b100000 <
b100000 r
1!
#875
b10010 $
0!
#900
b11 0
b11 D
b110 3
b110 6
1+
b101000 :"
b101000 I"
b1000110010100010000010000000 9"
b0 >"
b0 @"
b0 E"
b0 L"
b11111111111111111000100000100000 `
b11111111111111111000100000100000 T"
b11111111111111111000100000100000 W"
b1000100000100000 V"
b10010 O"
b1 b
b1 N"
b10001 M"
b1000110010100010000010000000 8"
b1000110010100010000010000000 S"
b10001100101000100000100000 R"
b10001 ]
b10010 _
b10001 ^
b10000 E
b10000 &"
b100010 4
b1 1
b1 !"
1P
b100010010100110000000000000000 p
b100010010100110000000000000000 s
b101000 )"
b101000 6"
b101000 7"
b0 R
b0 |
b0 K"
b0 z
b0 <"
b10001100101000100000100000 *
b10001100101000100000100000 Z
b10001100101000100000100000 q
b100100 :
b100100 ("
b100100 <
b100100 r
b10000 k
b10000 $"
b1001 S
b1001 Y
b1001 m
b1001 #"
b10000 T
b10000 l
b11111111111111111000000000100010 n
b11111111111111111000000000100010 }
b1 ,
b1 F
b1 ""
b1 H"
b1 j
b1 F"
b100 2
b100 C"
b100 i
b100 A"
b10 J
b10 u
b101000 8
b101000 o
b101000 '"
b100100 )
b100100 9
b100100 t
b100100 J"
1!
#925
b10011 $
0!
#950
b1000 e
b1000 ."
1-"
03"
b0 ,"
b1010000 >
b1010000 +"
b10 0
b10 D
b10 3
b10 6
b101100 :"
b101100 I"
b1001010011000000000000000000 9"
1Q
1Q"
b100010001100100000000000000000 p
b100010001100100000000000000000 s
b10001 E
b10001 &"
b100000 4
b0 `
b0 T"
b0 W"
b0 V"
b1000 =
b10011 O"
b10010 M"
b1001010011000000000000000000 8"
b1001010011000000000000000000 S"
b10010100110000000000000000 R"
b0 ]
b10011 _
b10010 ^
b101100 )"
b101100 6"
b101100 7"
b10 y
b101100 8
b101100 o
b101100 '"
b101000 )
b101000 9
b101000 t
b101000 J"
b10000 M
b10000 O
b10000 x
b1 @
b1 L
b11 ?
b11 K
b11 v
b11 ?"
b11 D"
b10001 k
b10001 $"
b10010 S
b10010 Y
b10010 m
b10010 #"
b10001 T
b10001 l
b11111111111111111000100000100000 n
b11111111111111111000100000100000 }
b1 2
b1 C"
b1 i
b1 A"
b100010010100110000000000000000 *
b100010010100110000000000000000 Z
b100010010100110000000000000000 q
b101000 :
b101000 ("
b101000 <
b101000 r
1!
#975
b10100 $
0!
#1000
b1 0
b1 D
b0 1
b0 !"
b10 3
b10 6
b110000 :"
b110000 I"
b1000110010000000000000000000 9"
b11 >"
b11 @"
b11 E"
b11 L"
b10010 O"
b10001 M"
b1000110010000000000000000000 8"
b1000110010000000000000000000 S"
b10001100100000000000000000 R"
b10010 _
b10001 ^
b10011 E
b10011 &"
b0 4
0%"
1~
b0 5
b100010011100010000000000000000 p
b100010011100010000000000000000 s
b110000 )"
b110000 6"
b110000 7"
b10000 R
b10000 |
b10000 K"
b11 z
b11 <"
b100010001100100000000000000000 *
b100010001100100000000000000000 Z
b100010001100100000000000000000 q
b101100 :
b101100 ("
b101100 <
b101100 r
b0 k
b0 $"
b10011 S
b10011 Y
b10011 m
b10011 #"
b10010 T
b10010 l
b0 n
b0 }
b1000 f
b10001 M
b10001 O
b10001 x
b10 ?
b10 K
b10 v
b10 ?"
b10 D"
b110000 8
b110000 o
b110000 '"
b101100 )
b101100 9
b101100 t
b101100 J"
1!
#1025
b10101 $
0!
