project1/code_pipeline/gg.vcd
$date
	Sun Dec 10 08:40:27 2017
$end
$version
	Icarus Verilog
$end
$timescale
	1s
$end
$scope module TestBench $end
$var reg 1 ! Clk $end
$var reg 1 " Reset $end
$var reg 1 # Start $end
$var integer 32 $ counter [31:0] $end
$var integer 32 % flush [31:0] $end
$var integer 32 & i [31:0] $end
$var integer 32 ' outfile [31:0] $end
$var integer 32 ( stall [31:0] $end
$scope module CPU $end
$var wire 1 ! clk_i $end
$var wire 1 " rst_i $end
$var wire 1 # start_i $end
$var wire 32 ) inst_addr [31:0] $end
$var wire 32 * inst [31:0] $end
$var wire 1 + Zero $end
$var wire 32 , MUXforward2_data [31:0] $end
$var wire 1 - Jump $end
$var wire 1 . Branch $end
$scope module ALU $end
$var wire 32 / data_o [31:0] $end
$var wire 32 0 data2_i [31:0] $end
$var wire 32 1 data1_i [31:0] $end
$var wire 1 + Zero_o $end
$var wire 3 2 ALUCtrl_i [2:0] $end
$upscope $end
$scope module ALU_Control $end
$var wire 6 3 funct_i [5:0] $end
$var wire 2 4 ALUOp_i [1:0] $end
$var wire 3 5 ALUCtrl_o [2:0] $end
$upscope $end
$scope module Add_PC $end
$var wire 32 6 data2_in [31:0] $end
$var wire 32 7 data_o [31:0] $end
$var wire 32 8 data1_in [31:0] $end
$upscope $end
$scope module Add_address $end
$var wire 32 9 data_o [31:0] $end
$var wire 32 : data2_in [31:0] $end
$var wire 32 ; data1_in [31:0] $end
$upscope $end
$scope module Control $end
$var wire 6 < Op_i [5:0] $end
$var reg 1 . branch_o $end
$var reg 10 = ctrl_signal_o [9:0] $end
$var reg 1 - jump_o $end
$upscope $end
$scope module DataMemory $end
$var wire 1 ! clk_i $end
$var wire 32 > addr_i [31:0] $end
$var wire 32 ? Writedata_i [31:0] $end
$var wire 1 @ MemWrite_i $end
$var wire 1 A MemRead_i $end
$var reg 32 B Readdata_o [31:0] $end
$upscope $end
$scope module EXMEM $end
$var wire 32 C addr_i [31:0] $end
$var wire 1 ! clk_i $end
$var wire 1 " rst_i $end
$var wire 5 D rd_i [4:0] $end
$var wire 32 E data_i [31:0] $end
$var wire 2 F WB_i [1:0] $end
$var wire 2 G M_i [1:0] $end
$var reg 2 H M_o [1:0] $end
$var reg 2 I WB_o [1:0] $end
$var reg 32 J addr_o [31:0] $end
$var reg 32 K data_o [31:0] $end
$var reg 5 L rd_o [4:0] $end
$upscope $end
$scope module Flush $end
$var wire 1 . Branch_i $end
$var wire 1 - Jump_i $end
$var wire 1 + Zero_i $end
$var wire 1 M flush_o $end
$upscope $end
$scope module ForwardUnit $end
$var wire 5 N EXMEM_RD_i [4:0] $end
$var wire 1 O EXMEM_RegWrite_i $end
$var wire 1 P MEMWB_RegWrite_i $end
$var wire 5 Q MEMWB_RD_i [4:0] $end
$var wire 5 R IDEX_RT_i [4:0] $end
$var wire 5 S IDEX_RS_i [4:0] $end
$var reg 2 T Forward1_o [1:0] $end
$var reg 2 U Forward2_o [1:0] $end
$upscope $end
$scope module HazardDetection $end
$var wire 1 V IFIDhazard_o $end
$var wire 1 W MUX_Control_hazard_o $end
$var wire 5 X rt_i [4:0] $end
$var wire 32 Y inst_i [31:0] $end
$var wire 1 Z hazard_o $end
$var wire 1 [ MemRead_i $end
$upscope $end
$scope module IDEX $end
$var wire 1 ! clk_i $end
$var wire 5 \ rd_i [4:0] $end
$var wire 5 ] rs_i [4:0] $end
$var wire 1 " rst_i $end
$var wire 5 ^ rt_i [4:0] $end
$var wire 32 _ signextend_i [31:0] $end
$var wire 32 ` data2_i [31:0] $end
$var wire 32 a data1_i [31:0] $end
$var wire 2 b WB_i [1:0] $end
$var wire 2 c M_i [1:0] $end
$var wire 4 d EX_i [3:0] $end
$var reg 4 e EX_o [3:0] $end
$var reg 2 f M_o [1:0] $end
$var reg 2 g WB_o [1:0] $end
$var reg 32 h data1_o [31:0] $end
$var reg 32 i data2_o [31:0] $end
$var reg 5 j rd_o [4:0] $end
$var reg 5 k rs_o [4:0] $end
$var reg 5 l rt_o [4:0] $end
$var reg 32 m signextend_o [31:0] $end
$upscope $end
$scope module IFID $end
$var wire 1 ! clk_i $end
$var wire 1 M flush_i $end
$var wire 1 V hazard_i $end
$var wire 32 n pc_i [31:0] $end
$var wire 1 " rst_i $end
$var wire 32 o inst_i [31:0] $end
$var reg 32 p inst_o [31:0] $end
$var reg 32 q pc_o [31:0] $end
$upscope $end
$scope module Instruction_Memory $end
$var wire 32 r instr_o [31:0] $end
$var wire 32 s addr_i [31:0] $end
$upscope $end
$scope module MEMWB $end
$var wire 2 t WB_i [1:0] $end
$var wire 32 u addr_i [31:0] $end
$var wire 1 ! clk_i $end
$var wire 32 v data_i [31:0] $end
$var wire 5 w rd_i [4:0] $end
$var wire 1 " rst_i $end
$var reg 2 x WB_o [1:0] $end
$var reg 32 y addr_o [31:0] $end
$var reg 32 z data_o [31:0] $end
$var reg 5 { rd_o [4:0] $end
$upscope $end
$scope module MUX32 $end
$var wire 32 | data2_i [31:0] $end
$var wire 1 } select_i $end
$var wire 32 ~ data_o [31:0] $end
$var wire 32 !" data1_i [31:0] $end
$upscope $end
$scope module MUX5 $end
$var wire 5 "" data1_i [4:0] $end
$var wire 5 #" data2_i [4:0] $end
$var wire 1 $" select_i $end
$var wire 5 %" data_o [4:0] $end
$upscope $end
$scope module MUX_Add $end
$var wire 1 + Zero_i $end
$var wire 32 &" data1_i [31:0] $end
$var wire 32 '" data2_i [31:0] $end
$var wire 1 . select_i $end
$var reg 32 (" data_o [31:0] $end
$var reg 1 )" select $end
$upscope $end
$scope module MUX_Control $end
$var wire 10 *" ctrl_sig_i [9:0] $end
$var wire 1 W hazard_i $end
$var reg 2 +" ALUOp [1:0] $end
$var reg 1 ," ALUSrc $end
$var reg 4 -" EX_o [3:0] $end
$var reg 2 ." M_o [1:0] $end
$var reg 1 /" MemRead $end
$var reg 1 0" MemWrite $end
$var reg 1 1" MemtoReg $end
$var reg 1 2" RegDst $end
$var reg 1 3" RegWrite $end
$var reg 2 4" WB_o [1:0] $end
$upscope $end
$scope module MUX_Jump $end
$var wire 32 5" data1_32_i [31:0] $end
$var wire 32 6" data2_i [31:0] $end
$var wire 1 - select_i $end
$var wire 28 7" data1_28_i [27:0] $end
$var reg 32 8" data1 [31:0] $end
$var reg 32 9" data_o [31:0] $end
$upscope $end
$scope module MUX_Write $end
$var wire 32 :" data1_i [31:0] $end
$var wire 32 ;" data2_i [31:0] $end
$var wire 1 <" select_i $end
$var wire 32 =" data_o [31:0] $end
$upscope $end
$scope module MUXforward_1 $end
$var wire 32 >" EXMEM_addr_i [31:0] $end
$var wire 32 ?" MEMWB_data_i [31:0] $end
$var wire 32 @" data_i [31:0] $end
$var wire 2 A" select_i [1:0] $end
$var reg 32 B" data_o [31:0] $end
$upscope $end
$scope module MUXforward_2 $end
$var wire 32 C" EXMEM_addr_i [31:0] $end
$var wire 32 D" MEMWB_data_i [31:0] $end
$var wire 32 E" data_i [31:0] $end
$var wire 2 F" select_i [1:0] $end
$var reg 32 G" data_o [31:0] $end
$upscope $end
$scope module PC $end
$var wire 1 ! clk_i $end
$var wire 1 Z hazard_i $end
$var wire 32 H" pc_i [31:0] $end
$var wire 1 " rst_i $end
$var wire 1 # start_i $end
$var reg 32 I" pc_o [31:0] $end
$upscope $end
$scope module Registers $end
$var wire 5 J" RDaddr_i [4:0] $end
$var wire 32 K" RDdata_i [31:0] $end
$var wire 5 L" RSaddr_i [4:0] $end
$var wire 32 M" RSdata_o [31:0] $end
$var wire 5 N" RTaddr_i [4:0] $end
$var wire 32 O" RTdata_o [31:0] $end
$var wire 1 P" RegWrite_i $end
$var wire 1 ! clk_i $end
$upscope $end
$scope module ShiftLeft26 $end
$var wire 26 Q" data_i [25:0] $end
$var wire 28 R" data_o [27:0] $end
$upscope $end
$scope module ShiftLeft32 $end
$var wire 32 S" data_i [31:0] $end
$var reg 32 T" data_o [31:0] $end
$upscope $end
$scope module Sign_Extend $end
$var wire 16 U" data_i [15:0] $end
$var wire 32 V" data_o [31:0] $end
$upscope $end
$upscope $end
$upscope $end
$enddefinitions $end
#12
$dumpvars
b0 V"
b0 U"
bx0000 T"
b0 S"
b0 R"
b0 Q"
0P"
b0 O"
b0 N"
b0 M"
b0 L"
b0 K"
b0 J"
b0 I"
b100 H"
b0 G"
b0 F"
b0 E"
b0 D"
b0 C"
b0 B"
b0 A"
b0 @"
b0 ?"
b0 >"
b0 ="
0<"
b0 ;"
b0 :"
b100 9"
b0 8"
b0 7"
b100 6"
b100 5"
b10 4"
13"
12"
01"
00"
0/"
b0 ."
b111 -"
0,"
b11 +"
b1110010000 *"
0)"
b100 ("
bx '"
b100 &"
b0 %"
0$"
b0 #"
b0 ""
b0 !"
b0 ~
0}
b0 |
b0 {
b0 z
b0 y
b0 x
b0 w
bx v
b0 u
b0 t
b0 s
b100000000001000000000000000000 r
b0 q
b0 p
b100000000001000000000000000000 o
b100 n
b0 m
b0 l
b0 k
b0 j
b0 i
b0 h
b0 g
b0 f
b0 e
b111 d
b0 c
b10 b
b0 a
b0 `
b0 _
b0 ^
b0 ]
b0 \
0[
0Z
b0 Y
b0 X
0W
0V
b0 U
b0 T
b0 S
b0 R
b0 Q
0P
0O
b0 N
0M
b0 L
b0 K
b0 J
b0 I
b0 H
b0 G
b0 F
b0 E
b0 D
b0 C
bx B
0A
0@
b0 ?
b0 >
b1110010000 =
b0 <
b0 ;
bx0000 :
bx 9
b0 8
b100 7
b100 6
b10 5
b0 4
b0 3
b10 2
b0 1
b0 0
b0 /
0.
0-
b0 ,
1+
b0 *
b0 )
b0 (
b11 '
b100000 &
b0 %
b0 $
1#
1"
1!
$end
#25
b1 $
0!
#50
b1000 d
b1000 -"
1,"
02"
b0 +"
b1010000 =
b1010000 *"
b0 2
b0 5
b1000 9"
b1000 H"
b100000000010000000000000000000 o
b100000000010000000000000000000 r
b1000 ("
b1000 6"
b100000000000000000000 8"
1$"
b11 4
b1000 <
b100 N"
b100000000000000000000 7"
b100000000000000000000 R"
b1000000000000000000 Q"
b100 ^
bx z
bx :"
b1000 7
b1000 n
b1000 &"
b1000 5"
b100 )
b100 8
b100 s
b100 I"
b111 e
b10 F
b10 g
b100000000001000000000000000000 *
b100000000001000000000000000000 Y
b100000000001000000000000000000 p
b100 ;
b100 q
1!
#75
b10 $
0!
#100
b10 2
b10 5
b100 D
b100 %"
b1100 9"
b1100 H"
b1000000000000000000000 8"
b1000 N"
b1000000000000000000000 7"
b1000000000000000000000 R"
b10000000000000000000 Q"
b1000 ^
0$"
1}
b0 4
1O
b100000000010010000000000000001 o
b100000000010010000000000000001 r
b1100 ("
b1100 6"
b100000000010000000000000000000 *
b100000000010000000000000000000 Y
b100000000010000000000000000000 p
b1000 ;
b1000 q
b100 R
b100 X
b100 l
b100 ""
b1000 e
b10 I
b10 t
b1100 7
b1100 n
b1100 &"
b1100 5"
b1000 )
b1000 8
b1000 s
b1000 I"
1!
#125
b11 $
0!
#150
b10000 9"
b10000 H"
bx000000 :
bx000000 T"
1P
1P"
b100000000100010000000000000000 o
b100000000100010000000000000000 r
b10000 ("
b10000 6"
b1001000000000000000100 8"
b1000 D
b1000 %"
b1 _
b1 S"
b1 V"
b1 U"
b1001 N"
b1001000000000000000100 7"
b1001000000000000000100 R"
b10010000000000000001 Q"
b1001 ^
b10 x
b10000 7
b10000 n
b10000 &"
b10000 5"
b1100 )
b1100 8
b1100 s
b1100 I"
b100 L
b100 N
b100 w
b1000 R
b1000 X
b1000 l
b1000 ""
b100000000010010000000000000001 *
b100000000010010000000000000001 Y
b100000000010010000000000000001 p
b1100 ;
b1100 q
1!
#175
b100 $
0!
#200
b1 /
b1 C
bx00000000 :
bx00000000 T"
0+
b10100 9"
b10100 H"
b10001000000000000000000 8"
b0 _
b0 S"
b0 V"
b0 U"
b10001 N"
b10001000000000000000000 7"
b10001000000000000000000 R"
b100010000000000000000 Q"
b10001 ^
b1001 D
b1001 %"
b1 3
b1 0
b1 ~
b100000000100100000000000000001 o
b100000000100100000000000000001 r
b10100 ("
b10100 6"
b100 Q
b100 {
b100 J"
b100000000100010000000000000000 *
b100000000100010000000000000000 Y
b100000000100010000000000000000 p
b10000 ;
b10000 q
b1001 R
b1001 X
b1001 l
b1001 ""
b1 m
b1 |
b1000 L
b1000 N
b1000 w
b10100 7
b10100 n
b10100 &"
b10100 5"
b10000 )
b10000 8
b10000 s
b10000 I"
1!
#225
b101 $
0!
#250
b0 /
b0 C
b11000 9"
b11000 H"
1+
bx0000000000 :
bx0000000000 T"
b10001100100100000000000000000000 o
b10001100100100000000000000000000 r
b11000 ("
b11000 6"
b10010000000000000000100 8"
b10001 D
b10001 %"
b0 3
b0 0
b0 ~
b1 _
b1 S"
b1 V"
b1 U"
b10010 N"
b10010000000000000000100 7"
b10010000000000000000100 R"
b100100000000000000001 Q"
b10010 ^
b1000 Q
b1000 {
b1000 J"
b11000 7
b11000 n
b11000 &"
b11000 5"
b10100 )
b10100 8
b10100 s
b10100 I"
b1001 L
b1001 N
b1001 w
b1 >
b1 J
b1 u
b1 >"
b1 C"
b10001 R
b10001 X
b10001 l
b10001 ""
b0 m
b0 |
b100000000100100000000000000001 *
b100000000100100000000000000001 Y
b100000000100100000000000000001 p
b10100 ;
b10100 q
1!
#275
b110 $
0!
#300
b10 c
b10 ."
b11 b
b11 4"
1/"
11"
b1110100 =
b1110100 *"
b1 /
b1 C
bx000000000000 :
bx000000000000 T"
0+
b11100 9"
b11100 H"
b10010000000000000000000000 8"
b1 ="
b1 ?"
b1 D"
b1 K"
b0 _
b0 S"
b0 V"
b0 U"
b100011 <
b10000 N"
b100 L"
b10010000000000000000000000 7"
b10010000000000000000000000 R"
b100100000000000000000000 Q"
b10000 ^
b100 ]
b10010 D
b10010 %"
b1 3
b1 0
b1 ~
b100010000101000000000000000000 o
b100010000101000000000000000000 r
b11100 ("
b11100 6"
b1001 Q
b1001 {
b1001 J"
b1 y
b1 ;"
b10001100100100000000000000000000 *
b10001100100100000000000000000000 Y
b10001100100100000000000000000000 p
b11000 ;
b11000 q
b10010 R
b10010 X
b10010 l
b10010 ""
b1 m
b1 |
b10001 L
b10001 N
b10001 w
b0 >
b0 J
b0 u
b0 >"
b0 C"
b11100 7
b11100 n
b11100 &"
b11100 5"
b11000 )
b11000 8
b11000 s
b11000 I"
1!
#325
b111 $
0!
#350
b0 d
b0 -"
b0 c
b0 ."
b0 b
b0 4"
b1010000 =
b1010000 *"
b0 /
b0 C
b100000 9"
b100000 H"
1W
1V
1Z
1+
b0 ="
b0 ?"
b0 D"
b0 K"
b10000010011000000000100010 o
b10000010011000000000100010 r
b100000 ("
b100000 6"
b1000010100000000000000000000 8"
b10000 D
b10000 %"
b0 3
b0 0
b0 ~
1[
b1000 <
b10100 N"
b10000 L"
b1000010100000000000000000000 7"
b1000010100000000000000000000 R"
b10000101000000000000000000 Q"
b10100 ^
b10000 ]
b10001 Q
b10001 {
b10001 J"
b0 y
b0 ;"
b100000 7
b100000 n
b100000 &"
b100000 5"
b11100 )
b11100 8
b11100 s
b11100 I"
b10010 L
b10010 N
b10010 w
b1 >
b1 J
b1 u
b1 >"
b1 C"
b10000 R
b10000 X
b10000 l
b10000 ""
b100 S
b100 k
b0 m
b0 |
b10 G
b10 f
b11 F
b11 g
b100010000101000000000000000000 *
b100010000101000000000000000000 Y
b100010000101000000000000000000 p
b11100 ;
b11100 q
1!
#375
b1000 $
b1 (
0!
#400
b1000 d
b1000 -"
b10 b
b10 4"
b101 B
b101 v
0/"
01"
0W
0V
0Z
b1 ="
b1 ?"
b1 D"
b1 K"
b10100 D
b10100 %"
0}
0[
b10 T
b10 A"
1A
b10010 Q
b10010 {
b10010 J"
b1 y
b1 ;"
b10100 R
b10100 X
b10100 l
b10100 ""
b10000 S
b10000 k
b0 e
b0 G
b0 f
b0 F
b0 g
b10000 L
b10000 N
b10000 w
b0 >
b0 J
b0 u
b0 >"
b0 C"
b10 H
b11 I
b11 t
1!
#425
b1001 $
0!
#450
b111 d
b111 -"
0,"
12"
b11 +"
b1110010000 =
b1110010000 *"
b101 /
b101 C
0+
b101 1
b101 B"
b100100 9"
b100100 H"
bx0000000000000000 :
bx0000000000000000 T"
b101 ="
b101 ?"
b101 D"
b101 K"
1<"
b10001100101000100000100000 o
b10001100101000100000100000 r
b100100 ("
b100100 6"
b1000001001100000000010001000 8"
b1 T
b1 A"
0A
0O
1}
b11111111111111111000000000100010 _
b11111111111111111000000000100010 S"
b11111111111111111000000000100010 V"
b1000000000100010 U"
b0 <
b1 `
b1 O"
b1001 N"
b1000001001100000000010001000 7"
b1000001001100000000010001000 R"
b10000010011000000000100010 Q"
b10000 \
b1001 ^
b10000 Q
b10000 {
b10000 J"
b101 z
b101 :"
b0 y
b0 ;"
b11 x
b100100 7
b100100 n
b100100 &"
b100100 5"
b100000 )
b100000 8
b100000 s
b100000 I"
b10100 L
b10100 N
b10100 w
b0 H
b0 I
b0 t
b1000 e
b10 F
b10 g
b10000010011000000000100010 *
b10000010011000000000100010 Y
b10000010011000000000100010 p
b100000 ;
b100000 q
1!
#475
b101 a
b101 M"
b1010 $
0!
#500
b100 /
b100 C
b110 2
b110 5
b0 ="
b0 ?"
b0 D"
b0 K"
bx000000000000000000 :
bx000000000000000000 T"
b101000 9"
b101000 H"
b1000110010100010000010000000 8"
0P
0<"
0P"
b11111111111111111000100000100000 _
b11111111111111111000100000100000 S"
b11111111111111111000100000100000 V"
b1000100000100000 U"
b10010 N"
b0 a
b0 M"
b10001 L"
b1000110010100010000010000000 7"
b1000110010100010000010000000 R"
b10001100101000100000100000 Q"
b10001 \
b10010 ^
b10001 ]
b10000 D
b10000 %"
b0 T
b0 A"
b100010 3
b1 0
b1 ~
1$"
0}
b11 4
1O
b100010010100110000000000000000 o
b100010010100110000000000000000 r
b101000 ("
b101000 6"
b10100 Q
b10100 {
b10100 J"
b0 x
b10001100101000100000100000 *
b10001100101000100000100000 Y
b10001100101000100000100000 p
b100100 ;
b100100 q
b10000 j
b10000 #"
b1001 R
b1001 X
b1001 l
b1001 ""
b11111111111111111000000000100010 m
b11111111111111111000000000100010 |
b1 ,
b1 E
b1 !"
b1 G"
b1 i
b1 E"
b101 h
b101 @"
b111 e
b101 >
b101 J
b101 u
b101 >"
b101 C"
b10 I
b10 t
b101000 7
b101000 n
b101000 &"
b101000 5"
b100100 )
b100100 8
b100100 s
b100100 I"
1!
#525
b1011 $
0!
#550
b1000 d
b1000 -"
1,"
02"
b0 +"
b1010000 =
b1010000 *"
b1 /
b1 C
b10 2
b10 5
b101100 9"
b101100 H"
bx0000000000000000000000 :
bx0000000000000000000000 T"
b101 ="
b101 ?"
b101 D"
b101 K"
1P
1P"
b100010001100100000000000000000 o
b100010001100100000000000000000 r
b101100 ("
b101100 6"
b1001010011000000000000000000 8"
b10001 D
b10001 %"
b100000 3
b0 _
b0 S"
b0 V"
b0 U"
b1000 <
b0 `
b0 O"
b10011 N"
b1 a
b1 M"
b10010 L"
b1001010011000000000000000000 7"
b1001010011000000000000000000 R"
b10010100110000000000000000 Q"
b0 \
b10011 ^
b10010 ]
b101 y
b101 ;"
b10 x
b101100 7
b101100 n
b101100 &"
b101100 5"
b101000 )
b101000 8
b101000 s
b101000 I"
b10000 L
b10000 N
b10000 w
b1 ?
b1 K
b100 >
b100 J
b100 u
b100 >"
b100 C"
b10001 j
b10001 #"
b10010 R
b10010 X
b10010 l
b10010 ""
b10001 S
b10001 k
b11111111111111111000100000100000 m
b11111111111111111000100000100000 |
b0 1
b0 B"
b0 h
b0 @"
b100010010100110000000000000000 *
b100010010100110000000000000000 Y
b100010010100110000000000000000 p
b101000 ;
b101000 q
1!
#575
b1100 $
0!
#600
b1 /
b1 C
b10 2
b10 5
b110000 9"
b110000 H"
b1000110010000000000000000000 8"
b100 ="
b100 ?"
b100 D"
b100 K"
b1 `
b1 O"
b10010 N"
b0 a
b0 M"
b10001 L"
b1000110010000000000000000000 7"
b1000110010000000000000000000 R"
b10001100100000000000000000 Q"
b10010 ^
b10001 ]
b10011 D
b10011 %"
b0 3
b0 0
b0 ~
0+
0$"
1}
b0 4
b100010011100010000000000000000 o
b100010011100010000000000000000 r
b110000 ("
b110000 6"
b10000 Q
b10000 {
b10000 J"
b100 y
b100 ;"
b100010001100100000000000000000 *
b100010001100100000000000000000 Y
b100010001100100000000000000000 p
b101100 ;
b101100 q
b0 j
b0 #"
b10011 R
b10011 X
b10011 l
b10011 ""
b10010 S
b10010 k
b0 m
b0 |
b0 ,
b0 E
b0 !"
b0 G"
b0 i
b0 E"
b1 1
b1 B"
b1 h
b1 @"
b1000 e
b10001 L
b10001 N
b10001 w
b1 >
b1 J
b1 u
b1 >"
b1 C"
b110000 7
b110000 n
b110000 &"
b110000 5"
b101100 )
b101100 8
b101100 s
b101100 I"
1!
#625
b1101 $
0!
#650
b1 /
b1 C
b110100 9"
b110100 H"
b1 ="
b1 ?"
b1 D"
b1 K"
b10010000010000000000000000001 o
b10010000010000000000000000001 r
b110100 ("
b110100 6"
b1001110001000000000000000000 8"
b10010 D
b10010 %"
b1 T
b1 A"
0+
b0 `
b0 O"
b10001 N"
b10011 L"
b1001110001000000000000000000 7"
b1001110001000000000000000000 R"
b10011100010000000000000000 Q"
b10001 ^
b10011 ]
b10001 Q
b10001 {
b10001 J"
b1 y
b1 ;"
b110100 7
b110100 n
b110100 &"
b110100 5"
b110000 )
b110000 8
b110000 s
b110000 I"
b10011 L
b10011 N
b10011 w
b0 ?
b0 K
b10010 R
b10010 X
b10010 l
b10010 ""
b10001 S
b10001 k
b1 ,
b1 E
b1 !"
b1 G"
b1 i
b1 E"
b1 1
b1 B"
b0 h
b0 @"
b100010011100010000000000000000 *
b100010011100010000000000000000 Y
b100010011100010000000000000000 p
b110000 ;
b110000 q
1!
#675
b1 `
b1 O"
b1110 $
0!
#700
b10 d
b10 -"
b0 b
b0 4"
03"
0,"
b1 +"
b100000010 =
b100000010 *"
bx000000000000000000000000 :
bx000000000000000000000000 T"
1.
b111000 9"
b111000 H"
b1000001000000000000000000100 8"
b1 _
b1 S"
b1 V"
b1 U"
b100 <
b0 `
b0 O"
b1000 N"
b100 a
b100 M"
b10000 L"
b1000001000000000000000000100 7"
b1000001000000000000000000100 R"
b10000010000000000000000001 Q"
b1000 ^
b10000 ]
b10001 D
b10001 %"
b1 T
b1 A"
b1000000000000000000000000111 o
b1000000000000000000000000111 r
b111000 ("
b111000 6"
b10011 Q
b10011 {
b10011 J"
b10010000010000000000000000001 *
b10010000010000000000000000001 Y
b10010000010000000000000000001 p
b110100 ;
b110100 q
b10001 R
b10001 X
b10001 l
b10001 ""
b10011 S
b10011 k
b10010 L
b10010 N
b10010 w
b1 ?
b1 K
b111000 7
b111000 n
b111000 &"
b111000 5"
b110100 )
b110100 8
b110100 s
b110100 I"
1!
#725
b1111 $
0!
#750
b0 d
b0 -"
b0 +"
b1 =
b1 *"
b110 2
b110 5
b100 /
b100 C
1M
b11100 9"
b11100 H"
b100 1
b100 B"
0+
bx00000000000000000000000000 :
bx00000000000000000000000000 T"
1-
0.
b10101100100100010000000000000100 o
b10101100100100010000000000000100 r
b111100 ("
b111100 6"
b11100 8"
b1000 D
b1000 %"
b0 T
b0 A"
b1 3
b0 0
b0 ~
0}
b1 4
b111 _
b111 S"
b111 V"
b111 U"
b10 <
b0 N"
b0 a
b0 M"
b0 L"
b11100 7"
b11100 R"
b111 Q"
b0 ^
b0 ]
b10010 Q
b10010 {
b10010 J"
b111100 7
b111100 n
b111100 &"
b111100 5"
b111000 )
b111000 8
b111000 s
b111000 I"
b10001 L
b10001 N
b10001 w
b1000 R
b1000 X
b1000 l
b1000 ""
b10000 S
b10000 k
b1 m
b1 |
b0 ,
b0 E
b0 !"
b0 G"
b0 i
b0 E"
b100 h
b100 @"
b10 e
b0 F
b0 g
b1000000000000000000000000111 *
b1000000000000000000000000111 Y
b1000000000000000000000000111 p
b111000 ;
b111000 q
1!
#775
b10000 $
b1 %
0!
#800
b111 d
b111 -"
b10 b
b10 4"
13"
12"
b11 +"
b1110010000 =
b1110010000 *"
b10 2
b10 5
b0 /
b0 C
0M
bx0000000000000000000000000000 :
bx0000000000000000000000000000 T"
0-
b100000 9"
b100000 H"
b0 8"
b0 _
b0 S"
b0 V"
b0 U"
b0 <
b0 7"
b0 R"
b0 Q"
b0 D
b0 %"
b111 3
1+
b0 4
0O
b10000010011000000000100010 o
b10000010011000000000100010 r
b100000 ("
b100000 6"
b10001 Q
b10001 {
b10001 J"
b0 *
b0 Y
b0 p
b0 ;
b0 q
b0 R
b0 X
b0 l
b0 ""
b0 S
b0 k
b111 m
b111 |
b0 1
b0 B"
b0 h
b0 @"
b0 e
b1000 L
b1000 N
b1000 w
b0 ?
b0 K
b100 >
b100 J
b100 u
b100 >"
b100 C"
b0 I
b0 t
b100000 7
b100000 n
b100000 &"
b100000 5"
b11100 )
b11100 8
b11100 s
b11100 I"
1!
#825
b10001 $
0!
#850
b0 2
b0 5
b100000 9
b100000 '"
b100100 9"
b100100 H"
b0 :
b0 T"
b100 ="
b100 ?"
b100 D"
b100 K"
0P
0P"
b10001100101000100000100000 o
b10001100101000100000100000 r
b100100 ("
b100100 6"
b1000001001100000000010001000 8"
b0 3
1$"
b11 4
b11111111111111111000000000100010 _
b11111111111111111000000000100010 S"
b11111111111111111000000000100010 V"
b1000000000100010 U"
b1 `
b1 O"
b1001 N"
b100 a
b100 M"
b10000 L"
b1000001001100000000010001000 7"
b1000001001100000000010001000 R"
b10000010011000000000100010 Q"
b10000 \
b1001 ^
b10000 ]
b1000 Q
b1000 {
b1000 J"
b100 y
b100 ;"
b0 x
b100100 7
b100100 n
b100100 &"
b100100 5"
b100000 )
b100000 8
b100000 s
b100000 I"
b0 L
b0 N
b0 w
b0 >
b0 J
b0 u
b0 >"
b0 C"
b0 m
b0 |
b111 e
b10 F
b10 g
b10000010011000000000100010 *
b10000010011000000000100010 Y
b10000010011000000000100010 p
b100000 ;
b100000 q
1!
#875
b10010 $
0!
#900
b11 /
b11 C
b110 2
b110 5
b101000 9"
b101000 H"
b1000110010100010000010000000 8"
b0 ="
b0 ?"
b0 D"
b0 K"
b11111111111111111000100000100000 _
b11111111111111111000100000100000 S"
b11111111111111111000100000100000 V"
b1000100000100000 U"
b10010 N"
b1 a
b1 M"
b10001 L"
b1000110010100010000010000000 7"
b1000110010100010000010000000 R"
b10001100101000100000100000 Q"
b10001 \
b10010 ^
b10001 ]
b10000 D
b10000 %"
b100010 3
b1 0
b1 ~
0+
1O
b100010010100110000000000000000 o
b100010010100110000000000000000 r
b101000 ("
b101000 6"
b0 Q
b0 {
b0 J"
b0 y
b0 ;"
b10001100101000100000100000 *
b10001100101000100000100000 Y
b10001100101000100000100000 p
b100100 9
b100100 '"
b100100 ;
b100100 q
b10000 j
b10000 #"
b1001 R
b1001 X
b1001 l
b1001 ""
b10000 S
b10000 k
b11111111111111111000000000100010 m
b11111111111111111000000000100010 |
b1 ,
b1 E
b1 !"
b1 G"
b1 i
b1 E"
b100 1
b100 B"
b100 h
b100 @"
b10 I
b10 t
b101000 7
b101000 n
b101000 &"
b101000 5"
b100100 )
b100100 8
b100100 s
b100100 I"
1!
#925
b10011 $
0!
#950
b1000 d
b1000 -"
1,"
02"
b0 +"
b1010000 =
b1010000 *"
b10 /
b10 C
b10 2
b10 5
1P
1P"
b100010001100100000000000000000 o
b100010001100100000000000000000 r
b101100 9"
b101100 H"
b1001010011000000000000000000 8"
b10001 D
b10001 %"
b100000 3
1+
b0 _
b0 S"
b0 V"
b0 U"
b1000 <
b10011 N"
b10010 L"
b1001010011000000000000000000 7"
b1001010011000000000000000000 R"
b10010100110000000000000000 Q"
b0 \
b10011 ^
b10010 ]
b101100 ("
b101100 6"
b10 x
b101100 7
b101100 n
b101100 &"
b101100 5"
b101000 )
b101000 8
b101000 s
b101000 I"
b10000 L
b10000 N
b10000 w
b1 ?
b1 K
b11 >
b11 J
b11 u
b11 >"
b11 C"
b10001 j
b10001 #"
b10010 R
b10010 X
b10010 l
b10010 ""
b10001 S
b10001 k
b11111111111111111000100000100000 m
b11111111111111111000100000100000 |
b1 1
b1 B"
b1 h
b1 @"
b100010010100110000000000000000 *
b100010010100110000000000000000 Y
b100010010100110000000000000000 p
b101000 9
b101000 '"
b101000 ;
b101000 q
1!
#975
b10100 $
0!
#1000
0+
b1 /
b1 C
b0 0
b0 ~
b10 2
b10 5
b110000 9"
b110000 H"
b1000110010000000000000000000 8"
b11 ="
b11 ?"
b11 D"
b11 K"
b10010 N"
b10001 L"
b1000110010000000000000000000 7"
b1000110010000000000000000000 R"
b10001100100000000000000000 Q"
b10010 ^
b10001 ]
b10011 D
b10011 %"
b0 3
0$"
1}
b0 4
b100010011100010000000000000000 o
b100010011100010000000000000000 r
b110000 ("
b110000 6"
b10000 Q
b10000 {
b10000 J"
b11 y
b11 ;"
b100010001100100000000000000000 *
b100010001100100000000000000000 Y
b100010001100100000000000000000 p
b101100 9
b101100 '"
b101100 ;
b101100 q
b0 j
b0 #"
b10011 R
b10011 X
b10011 l
b10011 ""
b10010 S
b10010 k
b0 m
b0 |
b1000 e
b10001 L
b10001 N
b10001 w
b10 >
b10 J
b10 u
b10 >"
b10 C"
b110000 7
b110000 n
b110000 &"
b110000 5"
b101100 )
b101100 8
b101100 s
b101100 I"
1!
#1025
b10101 $
0!
