project1/code_pipeline/gg.vcd
$date
	Sun Dec 10 16:17:33 2017
$end
$version
	Icarus Verilog
$end
$timescale
	1s
$end
$scope module TestBench $end
$var reg 1 ! Clk $end
$var reg 1 " Reset $end
$var reg 1 # Start $end
$var integer 32 $ counter [31:0] $end
$var integer 32 % flush [31:0] $end
$var integer 32 & i [31:0] $end
$var integer 32 ' outfile [31:0] $end
$var integer 32 ( stall [31:0] $end
$scope module CPU $end
$var wire 1 ! clk_i $end
$var wire 1 " rst_i $end
$var wire 1 # start_i $end
$var wire 32 ) inst_addr [31:0] $end
$var wire 32 * inst [31:0] $end
$var wire 1 + Zero $end
$var wire 32 , MUXforward2_data [31:0] $end
$var wire 1 - Jump $end
$var wire 1 . Branch $end
$scope module ALU $end
$var wire 1 / Zero_o $end
$var wire 32 0 data_o [31:0] $end
$var wire 32 1 data2_i [31:0] $end
$var wire 32 2 data1_i [31:0] $end
$var wire 3 3 ALUCtrl_i [2:0] $end
$upscope $end
$scope module ALU_Control $end
$var wire 6 4 funct_i [5:0] $end
$var wire 2 5 ALUOp_i [1:0] $end
$var wire 3 6 ALUCtrl_o [2:0] $end
$upscope $end
$scope module Add_PC $end
$var wire 32 7 data2_in [31:0] $end
$var wire 32 8 data_o [31:0] $end
$var wire 32 9 data1_in [31:0] $end
$upscope $end
$scope module Add_address $end
$var wire 32 : data_o [31:0] $end
$var wire 32 ; data2_in [31:0] $end
$var wire 32 < data1_in [31:0] $end
$upscope $end
$scope module Control $end
$var wire 6 = Op_i [5:0] $end
$var reg 1 . branch_o $end
$var reg 10 > ctrl_signal_o [9:0] $end
$var reg 1 - jump_o $end
$upscope $end
$scope module DataMemory $end
$var wire 1 ! clk_i $end
$var wire 32 ? addr_i [31:0] $end
$var wire 32 @ Writedata_i [31:0] $end
$var wire 1 A MemWrite_i $end
$var wire 1 B MemRead_i $end
$var reg 32 C Readdata_o [31:0] $end
$upscope $end
$scope module EXMEM $end
$var wire 32 D addr_i [31:0] $end
$var wire 1 ! clk_i $end
$var wire 1 " rst_i $end
$var wire 5 E rd_i [4:0] $end
$var wire 32 F data_i [31:0] $end
$var wire 2 G WB_i [1:0] $end
$var wire 2 H M_i [1:0] $end
$var reg 2 I M_o [1:0] $end
$var reg 2 J WB_o [1:0] $end
$var reg 32 K addr_o [31:0] $end
$var reg 32 L data_o [31:0] $end
$var reg 5 M rd_o [4:0] $end
$upscope $end
$scope module Flush $end
$var wire 1 . Branch_i $end
$var wire 1 - Jump_i $end
$var wire 1 + Zero_i $end
$var wire 1 N flush_o $end
$upscope $end
$scope module ForwardUnit $end
$var wire 5 O EXMEM_RD_i [4:0] $end
$var wire 1 P EXMEM_RegWrite_i $end
$var wire 1 Q MEMWB_RegWrite_i $end
$var wire 5 R MEMWB_RD_i [4:0] $end
$var wire 5 S IDEX_RT_i [4:0] $end
$var wire 5 T IDEX_RS_i [4:0] $end
$var reg 2 U Forward1_o [1:0] $end
$var reg 2 V Forward2_o [1:0] $end
$upscope $end
$scope module HazardDetection $end
$var wire 1 W IFIDhazard_o $end
$var wire 1 X MUX_Control_hazard_o $end
$var wire 5 Y rt_i [4:0] $end
$var wire 32 Z inst_i [31:0] $end
$var wire 1 [ hazard_o $end
$var wire 1 \ MemRead_i $end
$upscope $end
$scope module IDEX $end
$var wire 1 ! clk_i $end
$var wire 5 ] rd_i [4:0] $end
$var wire 5 ^ rs_i [4:0] $end
$var wire 1 " rst_i $end
$var wire 5 _ rt_i [4:0] $end
$var wire 32 ` signextend_i [31:0] $end
$var wire 32 a data2_i [31:0] $end
$var wire 32 b data1_i [31:0] $end
$var wire 2 c WB_i [1:0] $end
$var wire 2 d M_i [1:0] $end
$var wire 4 e EX_i [3:0] $end
$var reg 4 f EX_o [3:0] $end
$var reg 2 g M_o [1:0] $end
$var reg 2 h WB_o [1:0] $end
$var reg 32 i data1_o [31:0] $end
$var reg 32 j data2_o [31:0] $end
$var reg 5 k rd_o [4:0] $end
$var reg 5 l rs_o [4:0] $end
$var reg 5 m rt_o [4:0] $end
$var reg 32 n signextend_o [31:0] $end
$upscope $end
$scope module IFID $end
$var wire 1 ! clk_i $end
$var wire 1 N flush_i $end
$var wire 1 W hazard_i $end
$var wire 32 o pc_i [31:0] $end
$var wire 1 " rst_i $end
$var wire 32 p inst_i [31:0] $end
$var reg 32 q inst_o [31:0] $end
$var reg 32 r pc_o [31:0] $end
$upscope $end
$scope module Instruction_Memory $end
$var wire 32 s instr_o [31:0] $end
$var wire 32 t addr_i [31:0] $end
$upscope $end
$scope module MEMWB $end
$var wire 2 u WB_i [1:0] $end
$var wire 32 v addr_i [31:0] $end
$var wire 1 ! clk_i $end
$var wire 32 w data_i [31:0] $end
$var wire 5 x rd_i [4:0] $end
$var wire 1 " rst_i $end
$var reg 2 y WB_o [1:0] $end
$var reg 32 z addr_o [31:0] $end
$var reg 32 { data_o [31:0] $end
$var reg 5 | rd_o [4:0] $end
$upscope $end
$scope module MUX32 $end
$var wire 32 } data2_i [31:0] $end
$var wire 1 ~ select_i $end
$var wire 32 !" data_o [31:0] $end
$var wire 32 "" data1_i [31:0] $end
$upscope $end
$scope module MUX5 $end
$var wire 5 #" data1_i [4:0] $end
$var wire 5 $" data2_i [4:0] $end
$var wire 1 %" select_i $end
$var wire 5 &" data_o [4:0] $end
$upscope $end
$scope module MUX_Add $end
$var wire 1 + Zero_i $end
$var wire 32 '" data1_i [31:0] $end
$var wire 32 (" data2_i [31:0] $end
$var wire 1 . select_i $end
$var reg 32 )" data_o [31:0] $end
$var reg 1 *" select $end
$upscope $end
$scope module MUX_Control $end
$var wire 10 +" ctrl_sig_i [9:0] $end
$var wire 1 X hazard_i $end
$var reg 2 ," ALUOp [1:0] $end
$var reg 1 -" ALUSrc $end
$var reg 4 ." EX_o [3:0] $end
$var reg 2 /" M_o [1:0] $end
$var reg 1 0" MemRead $end
$var reg 1 1" MemWrite $end
$var reg 1 2" MemtoReg $end
$var reg 1 3" RegDst $end
$var reg 1 4" RegWrite $end
$var reg 2 5" WB_o [1:0] $end
$upscope $end
$scope module MUX_Jump $end
$var wire 32 6" data1_32_i [31:0] $end
$var wire 32 7" data2_i [31:0] $end
$var wire 1 - select_i $end
$var wire 28 8" data1_28_i [27:0] $end
$var reg 32 9" data1 [31:0] $end
$var reg 32 :" data_o [31:0] $end
$upscope $end
$scope module MUX_Write $end
$var wire 32 ;" data1_i [31:0] $end
$var wire 32 <" data2_i [31:0] $end
$var wire 1 =" select_i $end
$var wire 32 >" data_o [31:0] $end
$upscope $end
$scope module MUXforward_1 $end
$var wire 32 ?" EXMEM_addr_i [31:0] $end
$var wire 32 @" MEMWB_data_i [31:0] $end
$var wire 32 A" data_i [31:0] $end
$var wire 2 B" select_i [1:0] $end
$var reg 32 C" data_o [31:0] $end
$upscope $end
$scope module MUXforward_2 $end
$var wire 32 D" EXMEM_addr_i [31:0] $end
$var wire 32 E" MEMWB_data_i [31:0] $end
$var wire 32 F" data_i [31:0] $end
$var wire 2 G" select_i [1:0] $end
$var reg 32 H" data_o [31:0] $end
$upscope $end
$scope module PC $end
$var wire 1 ! clk_i $end
$var wire 1 [ hazard_i $end
$var wire 32 I" pc_i [31:0] $end
$var wire 1 " rst_i $end
$var wire 1 # start_i $end
$var reg 32 J" pc_o [31:0] $end
$upscope $end
$scope module Registers $end
$var wire 5 K" RDaddr_i [4:0] $end
$var wire 32 L" RDdata_i [31:0] $end
$var wire 5 M" RSaddr_i [4:0] $end
$var wire 32 N" RSdata_o [31:0] $end
$var wire 5 O" RTaddr_i [4:0] $end
$var wire 32 P" RTdata_o [31:0] $end
$var wire 1 Q" RegWrite_i $end
$var wire 1 ! clk_i $end
$upscope $end
$scope module ShiftLeft26 $end
$var wire 26 R" data_i [25:0] $end
$var wire 28 S" data_o [27:0] $end
$upscope $end
$scope module ShiftLeft32 $end
$var wire 32 T" data_i [31:0] $end
$var reg 32 U" data_o [31:0] $end
$upscope $end
$scope module Sign_Extend $end
$var wire 16 V" data_i [15:0] $end
$var wire 32 W" data_o [31:0] $end
$upscope $end
$upscope $end
$upscope $end
$enddefinitions $end
#12
$dumpvars
b0 W"
b0 V"
b0 U"
b0 T"
b0 S"
b0 R"
0Q"
b0 P"
b0 O"
b0 N"
b0 M"
b0 L"
b0 K"
b0 J"
b100 I"
b0 H"
b0 G"
b0 F"
b0 E"
b0 D"
b0 C"
b0 B"
b0 A"
b0 @"
b0 ?"
b0 >"
0="
b0 <"
b0 ;"
b100 :"
b0 9"
b0 8"
b100 7"
b100 6"
b10 5"
14"
13"
02"
01"
00"
b0 /"
b111 ."
0-"
b11 ,"
b1110010000 +"
0*"
b100 )"
b0 ("
b100 '"
b0 &"
0%"
b0 $"
b0 #"
b0 ""
b0 !"
0~
b0 }
b0 |
b0 {
b0 z
b0 y
b0 x
bx w
b0 v
b0 u
b0 t
b100000000100000 s
b0 r
b0 q
b100000000100000 p
b100 o
b0 n
b0 m
b0 l
b0 k
b0 j
b0 i
b0 h
b0 g
b0 f
b111 e
b0 d
b10 c
b0 b
b0 a
b0 `
b0 _
b0 ^
b0 ]
0\
0[
b0 Z
b0 Y
0X
0W
b0 V
b0 U
b0 T
b0 S
b0 R
0Q
0P
b0 O
0N
b0 M
b0 L
b0 K
b0 J
b0 I
b0 H
b0 G
b0 F
b0 E
b0 D
bx C
0B
0A
b0 @
b0 ?
b1110010000 >
b0 =
b0 <
b0 ;
b0 :
b0 9
b100 8
b100 7
b10 6
b0 5
b0 4
b10 3
b0 2
b0 1
b0 0
z/
0.
0-
b0 ,
1+
b0 *
b0 )
b0 (
b11 '
b100000 &
b0 %
b0 $
1#
1"
1!
$end
#25
b1 $
0!
#50
b0 3
b0 6
b10000000010000000 ;
b10000000010000000 U"
b1000 :"
b1000 I"
b10000000010000000 9"
b100000000010010000000000001010 p
b100000000010010000000000001010 s
1%"
b11 5
b100000000100000 `
b100000000100000 T"
b100000000100000 W"
b100000000100000 V"
b10000000010000000 8"
b10000000010000000 S"
b100000000100000 R"
b1000 ]
b1000 )"
b1000 6"
b1000 7"
bx {
bx ;"
b1000 8
b1000 o
b1000 '"
b100 )
b100 9
b100 t
b100 J"
b111 f
b10 G
b10 h
b100000000100000 *
b100000000100000 Z
b100000000100000 q
b10000000010000100 :
b10000000010000100 ("
b100 <
b100 r
1!
#75
b10 $
0!
#100
b1000 e
b1000 ."
1-"
03"
b0 ,"
b1010000 >
b1010000 +"
b10 3
b10 6
b101000 ;
b101000 U"
b1100 :"
b1100 I"
b1001000000000000101000 9"
b1010 `
b1010 T"
b1010 W"
b1010 V"
b1000 =
b1001 O"
b1001000000000000101000 8"
b1001000000000000101000 S"
b10010000000000001010 R"
b0 ]
b1001 _
b1000 E
b1000 &"
b100000 4
1P
b10101101000000000000000000000000 p
b10101101000000000000000000000000 s
b1100 )"
b1100 6"
b1100 7"
b100000000010010000000000001010 *
b100000000010010000000000001010 Z
b100000000010010000000000001010 q
b110000 :
b110000 ("
b1000 <
b1000 r
b1000 k
b1000 $"
b100000000100000 n
b100000000100000 }
b10 J
b10 u
b1100 8
b1100 o
b1100 '"
b1000 )
b1000 9
b1000 t
b1000 J"
1!
#125
b11 $
0!
#150
b1 d
b1 /"
b0 c
b0 5"
11"
04"
b1001000 >
b1001000 +"
b1010 0
b1010 D
b1010 1
b1010 !"
b10 3
b10 6
b0 ;
b0 U"
b10000 :"
b10000 I"
b100000000000000000000000000 9"
1Q
1Q"
b10101101000010010000000000000100 p
b10101101000010010000000000000100 s
b1001 E
b1001 &"
b1010 4
0%"
1~
b0 5
b0 `
b0 T"
b0 W"
b0 V"
b101011 =
b0 O"
b1000 M"
b100000000000000000000000000 8"
b100000000000000000000000000 S"
b1000000000000000000000000 R"
b0 _
b1000 ^
b10000 )"
b10000 6"
b10000 7"
b10 y
b10000 8
b10000 o
b10000 '"
b1100 )
b1100 9
b1100 t
b1100 J"
b1000 M
b1000 O
b1000 x
b0 k
b0 $"
b1001 S
b1001 Y
b1001 m
b1001 #"
b1010 n
b1010 }
b1000 f
b10101101000000000000000000000000 *
b10101101000000000000000000000000 Z
b10101101000000000000000000000000 q
b1100 :
b1100 ("
b1100 <
b1100 r
1!
#175
b100 $
0!
#200
b0 0
b0 D
b10000 ;
b10000 U"
b10100 :"
b10100 I"
b100001001000000000000010000 9"
b100 `
b100 T"
b100 W"
b100 V"
b1001 O"
b100001001000000000000010000 8"
b100001001000000000000010000 S"
b1000010010000000000000100 R"
b1001 _
b0 E
b0 &"
b0 4
b0 1
b0 !"
b1 U
b1 B"
b10001101000011010000000000000100 p
b10001101000011010000000000000100 s
b10100 )"
b10100 6"
b10100 7"
b1000 R
b1000 |
b1000 K"
b10101101000010010000000000000100 *
b10101101000010010000000000000100 Z
b10101101000010010000000000000100 q
b100000 :
b100000 ("
b10000 <
b10000 r
b0 S
b0 Y
b0 m
b0 #"
b1000 T
b1000 l
b0 n
b0 }
b1 H
b1 g
b0 G
b0 h
b1001 M
b1001 O
b1001 x
b1010 ?
b1010 K
b1010 v
b1010 ?"
b1010 D"
b10100 8
b10100 o
b10100 '"
b10000 )
b10000 9
b10000 t
b10000 J"
1!
#225
b101 $
0!
#250
b10 d
b10 /"
b11 c
b11 5"
10"
01"
14"
12"
b1110100 >
b1110100 +"
b100 0
b100 D
b11000 :"
b11000 I"
b100001101000000000000010000 9"
b1010 ,
b1010 F
b1010 ""
b1010 H"
b1010 >"
b1010 @"
b1010 E"
b1010 L"
b1101010010111100000100000 p
b1101010010111100000100000 s
1A
0P
b1001 E
b1001 &"
b1 V
b1 G"
b0 U
b0 B"
b100 4
b100 1
b100 !"
b100011 =
b1101 O"
b100001101000000000000010000 8"
b100001101000000000000010000 S"
b1000011010000000000000100 R"
b1101 _
b11000 )"
b11000 6"
b11000 7"
b1001 R
b1001 |
b1001 K"
b1010 z
b1010 <"
b11000 8
b11000 o
b11000 '"
b10100 )
b10100 9
b10100 t
b10100 J"
b0 M
b0 O
b0 x
b0 ?
b0 K
b0 v
b0 ?"
b0 D"
b1 I
b0 J
b0 u
b1001 S
b1001 Y
b1001 m
b1001 #"
b100 n
b100 }
b10001101000011010000000000000100 *
b10001101000011010000000000000100 Z
b10001101000011010000000000000100 q
b100100 :
b100100 ("
b10100 <
b10100 r
1!
#275
b110 $
0!
#300
b0 e
b0 ."
b0 d
b0 /"
b0 c
b0 5"
b1110010000 >
b1110010000 +"
b11110000010000000 ;
b11110000010000000 U"
0+
1X
1W
1[
b11100 :"
b11100 I"
b110101001011110000010000000 9"
b0 ,
b0 F
b0 ""
b0 H"
b0 >"
b0 @"
b0 E"
b0 L"
0Q
0Q"
b111100000100000 `
b111100000100000 T"
b111100000100000 W"
b111100000100000 V"
b0 =
b1010 a
b1010 P"
b1001 O"
b1101 M"
b110101001011110000010000000 8"
b110101001011110000010000000 S"
b1101010010111100000100000 R"
b1111 ]
b1001 _
b1101 ^
b1101 E
b1101 &"
1\
b0 V
b0 G"
b100000000010100000000000001101 p
b100000000010100000000000001101 s
b11100 )"
b11100 6"
b11100 7"
b0 R
b0 |
b0 K"
b0 z
b0 <"
b0 y
b1101010010111100000100000 *
b1101010010111100000100000 Z
b1101010010111100000100000 q
b11110000010011000 :
b11110000010011000 ("
b11000 <
b11000 r
b1101 S
b1101 Y
b1101 m
b1101 #"
b10 H
b10 g
b11 G
b11 h
b1001 M
b1001 O
b1001 x
b1010 @
b1010 L
b100 ?
b100 K
b100 v
b100 ?"
b100 D"
b11100 8
b11100 o
b11100 '"
b11000 )
b11000 9
b11000 t
b11000 J"
1!
#325
b111 $
b1 (
0!
#350
b111 e
b111 ."
b10 c
b10 5"
b1010 C
b1010 w
b1110 0
b1110 D
00"
02"
0-"
13"
b11 ,"
b100 2
b100 C"
b10 U
b10 B"
0X
0W
0[
b100 >"
b100 @"
b100 E"
b100 L"
1B
0A
1P
b1001 E
b1001 &"
b100000 4
b1010 1
b1010 !"
0~
0\
b1001 R
b1001 |
b1001 K"
b100 z
b100 <"
b1101 M
b1101 O
b1101 x
b0 @
b0 L
b10 I
b11 J
b11 u
b1111 k
b1111 $"
b1001 S
b1001 Y
b1001 m
b1001 #"
b1101 T
b1101 l
b111100000100000 n
b111100000100000 }
b1010 ,
b1010 F
b1010 ""
b1010 H"
b1010 j
b1010 F"
b0 f
b0 H
b0 g
b0 G
b0 h
1!
#375
b1000 $
0!
#400
b1000 e
b1000 ."
1-"
03"
b0 ,"
b1010000 >
b1010000 +"
b1010 >"
b1010 @"
b1010 E"
b1010 L"
b1111 E
b1111 &"
b10100 0
b10100 D
b110100 ;
b110100 U"
1+
b100000 :"
b100000 I"
b1010000000000000110100 9"
1Q
1="
1Q"
b1101 `
b1101 T"
b1101 W"
b1101 V"
b1000 =
b0 a
b0 P"
b1010 O"
b0 M"
b1010000000000000110100 8"
b1010000000000000110100 S"
b10100000000000001101 R"
b0 ]
b1010 _
b0 ^
1%"
b11 5
b1 U
b1 B"
0B
0P
b1001010010101100000011000 p
b1001010010101100000011000 s
b100000 )"
b100000 6"
b100000 7"
b1101 R
b1101 |
b1101 K"
b1010 {
b1010 ;"
b11 y
b100000000010100000000000001101 *
b100000000010100000000000001101 Z
b100000000010100000000000001101 q
b1010000 :
b1010000 ("
b11100 <
b11100 r
b111 f
b10 G
b10 h
b1001 M
b1001 O
b1001 x
b1010 @
b1010 L
b1010 2
b1010 C"
b1110 ?
b1110 K
b1110 v
b1110 ?"
b1110 D"
b0 I
b0 J
b0 u
b100000 8
b100000 o
b100000 '"
b11100 )
b11100 9
b11100 t
b11100 J"
1!
#425
b1001 $
0!
#450
b111 e
b111 ."
0-"
13"
b11 ,"
b1110010000 >
b1110010000 +"
b1101 0
b1101 D
b1110 >"
b1110 @"
b1110 E"
b1110 L"
b10 3
b10 6
b10110000001100000 ;
b10110000001100000 U"
b100100 :"
b100100 I"
b100101001010110000001100000 9"
0Q
0="
0Q"
b1000000000000000000000001011 p
b1000000000000000000000001011 s
b0 2
b0 C"
1P
b1010 E
b1010 &"
b0 U
b0 B"
b1101 4
b1101 1
b1101 !"
0%"
1~
b0 5
b101100000011000 `
b101100000011000 T"
b101100000011000 W"
b101100000011000 V"
b0 =
b1010 a
b1010 P"
b1001 O"
b1010 b
b1010 N"
b1001 M"
b100101001010110000001100000 8"
b100101001010110000001100000 S"
b1001010010101100000011000 R"
b1011 ]
b1001 _
b1001 ^
b100100 )"
b100100 6"
b100100 7"
b1001 R
b1001 |
b1001 K"
b1110 z
b1110 <"
b0 y
b100100 8
b100100 o
b100100 '"
b100000 )
b100000 9
b100000 t
b100000 J"
b1111 M
b1111 O
b1111 x
b10100 ?
b10100 K
b10100 v
b10100 ?"
b10100 D"
b10 J
b10 u
b0 k
b0 $"
b1010 S
b1010 Y
b1010 m
b1010 #"
b0 T
b0 l
b1101 n
b1101 }
b0 ,
b0 F
b0 ""
b0 H"
b0 j
b0 F"
b1000 f
b1001010010101100000011000 *
b1001010010101100000011000 Z
b1001010010101100000011000 q
b10110000010000000 :
b10110000010000000 ("
b100000 <
b100000 r
1!
#475
b1010 $
0!
#500
b0 e
b0 ."
b0 c
b0 5"
04"
03"
b0 ,"
b1 >
b1 +"
b101 3
b101 6
1N
b1100100 0
b1100100 D
b101100 ;
b101100 U"
1-
b101100 :"
b101100 I"
b101100 9"
b10100 >"
b10100 @"
b10100 E"
b10100 L"
1Q
1Q"
b1011 `
b1011 T"
b1011 W"
b1011 V"
b10 =
b0 a
b0 P"
b0 O"
b0 b
b0 N"
b0 M"
b101100 8"
b101100 S"
b1011 R"
b0 ]
b0 _
b0 ^
b1011 E
b1011 &"
b11000 4
b1010 1
b1010 !"
1%"
0~
b11 5
b100001001010010000000000000001 p
b100001001010010000000000000001 s
b101000 )"
b101000 6"
b101000 7"
b1111 R
b1111 |
b1111 K"
b10100 z
b10100 <"
b10 y
b1000000000000000000000001011 *
b1000000000000000000000001011 Z
b1000000000000000000000001011 q
b1010000 :
b1010000 ("
b100100 <
b100100 r
b1011 k
b1011 $"
b1001 S
b1001 Y
b1001 m
b1001 #"
b1001 T
b1001 l
b101100000011000 n
b101100000011000 }
b1010 ,
b1010 F
b1010 ""
b1010 H"
b1010 j
b1010 F"
b1010 2
b1010 C"
b1010 i
b1010 A"
b111 f
b1010 M
b1010 O
b1010 x
b0 @
b0 L
b1101 ?
b1101 K
b1101 v
b1101 ?"
b1101 D"
b101000 8
b101000 o
b101000 '"
b100100 )
b100100 9
b100100 t
b100100 J"
1!
#525
b1011 $
b1 %
0!
#550
b111 e
b111 ."
b10 c
b10 5"
14"
13"
b11 ,"
b1110010000 >
b1110010000 +"
b10 3
b10 6
b0 0
b0 D
0N
b0 ;
b0 U"
0-
b110000 :"
b110000 I"
b0 9"
b1101 >"
b1101 @"
b1101 E"
b1101 L"
b1010010010101000000100010 p
b1010010010101000000100010 s
b0 E
b0 &"
b1011 4
b0 1
b0 !"
0%"
b0 5
b0 `
b0 T"
b0 W"
b0 V"
b0 =
b0 8"
b0 S"
b0 R"
b110000 )"
b110000 6"
b110000 7"
b1010 R
b1010 |
b1010 K"
b1101 z
b1101 <"
b110000 8
b110000 o
b110000 '"
b101100 )
b101100 9
b101100 t
b101100 J"
b1011 M
b1011 O
b1011 x
b1010 @
b1010 L
b1100100 ?
b1100100 K
b1100100 v
b1100100 ?"
b1100100 D"
b0 k
b0 $"
b0 S
b0 Y
b0 m
b0 #"
b0 T
b0 l
b1011 n
b1011 }
b0 ,
b0 F
b0 ""
b0 H"
b0 j
b0 F"
b0 2
b0 C"
b0 i
b0 A"
b0 f
b0 G
b0 h
b0 *
b0 Z
b0 q
b0 :
b0 ("
b0 <
b0 r
1!
#575
b1100 $
0!
#600
b0 3
b0 6
b10100000010001000 ;
b10100000010001000 U"
0+
b110100 :"
b110100 I"
b101001001010100000010001000 9"
b1100100 >"
b1100100 @"
b1100100 E"
b1100100 L"
b101000000100010 `
b101000000100010 T"
b101000000100010 W"
b101000000100010 V"
b1010 a
b1010 P"
b1001 O"
b1101 b
b1101 N"
b1010 M"
b101001001010100000010001000 8"
b101001001010100000010001000 S"
b1010010010101000000100010 R"
b1010 ]
b1001 _
b1010 ^
b0 4
1%"
b11 5
0P
b1001010100101100000100100 p
b1001010100101100000100100 s
b110100 )"
b110100 6"
b110100 7"
b1011 R
b1011 |
b1011 K"
b1100100 z
b1100100 <"
b1010010010101000000100010 *
b1010010010101000000100010 Z
b1010010010101000000100010 q
b10100000010111000 :
b10100000010111000 ("
b110000 <
b110000 r
b0 n
b0 }
b111 f
b10 G
b10 h
b0 M
b0 O
b0 x
b0 @
b0 L
b0 ?
b0 K
b0 v
b0 ?"
b0 D"
b0 J
b0 u
b110100 8
b110100 o
b110100 '"
b110000 )
b110000 9
b110000 t
b110000 J"
1!
#625
b1101 $
0!
#650
b110 3
b110 6
b11 0
b11 D
b10110000010010000 ;
b10110000010010000 U"
b111000 :"
b111000 I"
b100101010010110000010010000 9"
b0 >"
b0 @"
b0 E"
b0 L"
0Q
0Q"
b1010010110110000000100101 p
b1010010110110000000100101 s
1P
b1010 E
b1010 &"
b100010 4
b1010 1
b1010 !"
b101100000100100 `
b101100000100100 T"
b101100000100100 W"
b101100000100100 V"
b1101 a
b1101 P"
b1010 O"
b1010 b
b1010 N"
b1001 M"
b100101010010110000010010000 8"
b100101010010110000010010000 S"
b1001010100101100000100100 R"
b1011 ]
b1010 _
b1001 ^
b111000 )"
b111000 6"
b111000 7"
b0 R
b0 |
b0 K"
b0 z
b0 <"
b0 y
b111000 8
b111000 o
b111000 '"
b110100 )
b110100 9
b110100 t
b110100 J"
b10 J
b10 u
b1010 k
b1010 $"
b1001 S
b1001 Y
b1001 m
b1001 #"
b1010 T
b1010 l
b101000000100010 n
b101000000100010 }
b1010 ,
b1010 F
b1010 ""
b1010 H"
b1010 j
b1010 F"
b1101 2
b1101 C"
b1101 i
b1101 A"
b1001010100101100000100100 *
b1001010100101100000100100 Z
b1001010100101100000100100 q
b10110000011000100 :
b10110000011000100 ("
b110100 <
b110100 r
1!
#675
b1110 $
0!
#700
b0 3
b0 6
b10 0
b10 D
b11000000010010100 ;
b11000000010010100 U"
b111100 :"
b111100 I"
b101001011011000000010010100 9"
1Q
1Q"
b110000000100101 `
b110000000100101 T"
b110000000100101 W"
b110000000100101 V"
b1100100 a
b1100100 P"
b1011 O"
b1101 b
b1101 N"
b1010 M"
b101001011011000000010010100 8"
b101001011011000000010010100 S"
b1010010110110000000100101 R"
b1100 ]
b1011 _
b1010 ^
b1011 E
b1011 &"
b100100 4
b11 1
b11 !"
b10 V
b10 G"
b0 p
b0 s
b111100 )"
b111100 6"
b111100 7"
b10 y
b1010010110110000000100101 *
b1010010110110000000100101 Z
b1010010110110000000100101 q
b11000000011001100 :
b11000000011001100 ("
b111000 <
b111000 r
b1011 k
b1011 $"
b1010 S
b1010 Y
b1010 m
b1010 #"
b1001 T
b1001 l
b101100000100100 n
b101100000100100 }
b11 ,
b11 F
b11 ""
b11 H"
b1101 j
b1101 F"
b1010 2
b1010 C"
b1010 i
b1010 A"
b1010 M
b1010 O
b1010 x
b1010 @
b1010 L
b11 ?
b11 K
b11 v
b11 ?"
b11 D"
b111100 8
b111100 o
b111100 '"
b111000 )
b111000 9
b111000 t
b111000 J"
1!
#725
b1111 $
0!
#750
b1 3
b1 6
b11 0
b11 D
b0 ;
b0 U"
1+
b1000000 :"
b1000000 I"
b0 9"
b11 >"
b11 @"
b11 E"
b11 L"
b10 1
b10 !"
b1100 E
b1100 &"
b10 V
b10 G"
b1 U
b1 B"
b100101 4
b0 `
b0 T"
b0 W"
b0 V"
b0 a
b0 P"
b0 O"
b0 b
b0 N"
b0 M"
b0 8"
b0 S"
b0 R"
b0 ]
b0 _
b0 ^
b1000000 )"
b1000000 6"
b1000000 7"
b1010 R
b1010 |
b1010 K"
b11 z
b11 <"
b1000000 8
b1000000 o
b1000000 '"
b111100 )
b111100 9
b111100 t
b111100 J"
b1011 M
b1011 O
b1011 x
b11 @
b11 L
b10 ,
b10 F
b10 ""
b10 H"
b10 ?
b10 K
b10 v
b10 ?"
b10 D"
b1100 k
b1100 $"
b1011 S
b1011 Y
b1011 m
b1011 #"
b1010 T
b1010 l
b110000000100101 n
b110000000100101 }
b1100100 j
b1100100 F"
b11 2
b11 C"
b1101 i
b1101 A"
b0 *
b0 Z
b0 q
b111100 :
b111100 ("
b111100 <
b111100 r
1!
#775
b10000 $
0!
#800
b0 3
b0 6
b0 0
b0 D
b1000100 :"
b1000100 I"
b0 2
b0 C"
b10 >"
b10 @"
b10 E"
b10 L"
b0 E
b0 &"
b0 4
b0 V
b0 G"
b0 U
b0 B"
b0 1
b0 !"
b1000100 )"
b1000100 6"
b1000100 7"
b1011 R
b1011 |
b1011 K"
b10 z
b10 <"
b1000000 :
b1000000 ("
b1000000 <
b1000000 r
b0 k
b0 $"
b0 S
b0 Y
b0 m
b0 #"
b0 T
b0 l
b0 n
b0 }
b0 j
b0 F"
b0 i
b0 A"
b1100 M
b1100 O
b1100 x
b10 @
b10 L
b0 ,
b0 F
b0 ""
b0 H"
b11 ?
b11 K
b11 v
b11 ?"
b11 D"
b1000100 8
b1000100 o
b1000100 '"
b1000000 )
b1000000 9
b1000000 t
b1000000 J"
1!
#825
b10001 $
0!
#850
b1001000 :"
b1001000 I"
b11 >"
b11 @"
b11 E"
b11 L"
b1001000 )"
b1001000 6"
b1001000 7"
b1100 R
b1100 |
b1100 K"
b11 z
b11 <"
b1001000 8
b1001000 o
b1001000 '"
b1000100 )
b1000100 9
b1000100 t
b1000100 J"
b0 M
b0 O
b0 x
b0 @
b0 L
b0 ?
b0 K
b0 v
b0 ?"
b0 D"
b1000100 :
b1000100 ("
b1000100 <
b1000100 r
1!
#875
b10010 $
0!
#900
b1001100 :"
b1001100 I"
b0 >"
b0 @"
b0 E"
b0 L"
b1001100 )"
b1001100 6"
b1001100 7"
b0 R
b0 |
b0 K"
b0 z
b0 <"
b1001000 :
b1001000 ("
b1001000 <
b1001000 r
b1001100 8
b1001100 o
b1001100 '"
b1001000 )
b1001000 9
b1001000 t
b1001000 J"
1!
#925
b10011 $
0!
#950
b1010000 :"
b1010000 I"
b1010000 )"
b1010000 6"
b1010000 7"
b1010000 8
b1010000 o
b1010000 '"
b1001100 )
b1001100 9
b1001100 t
b1001100 J"
b1001100 :
b1001100 ("
b1001100 <
b1001100 r
1!
#975
b10100 $
0!
#1000
b1010100 :"
b1010100 I"
b1010100 )"
b1010100 6"
b1010100 7"
b1010000 :
b1010000 ("
b1010000 <
b1010000 r
b1010100 8
b1010100 o
b1010100 '"
b1010000 )
b1010000 9
b1010000 t
b1010000 J"
1!
#1025
b10101 $
0!
#1050
b1011000 :"
b1011000 I"
b1011000 )"
b1011000 6"
b1011000 7"
b1011000 8
b1011000 o
b1011000 '"
b1010100 )
b1010100 9
b1010100 t
b1010100 J"
b1010100 :
b1010100 ("
b1010100 <
b1010100 r
1!
#1075
b10110 $
0!
#1100
b1011100 :"
b1011100 I"
b1011100 )"
b1011100 6"
b1011100 7"
b1011000 :
b1011000 ("
b1011000 <
b1011000 r
b1011100 8
b1011100 o
b1011100 '"
b1011000 )
b1011000 9
b1011000 t
b1011000 J"
1!
#1125
b10111 $
0!
#1150
b1100000 :"
b1100000 I"
b1100000 )"
b1100000 6"
b1100000 7"
b1100000 8
b1100000 o
b1100000 '"
b1011100 )
b1011100 9
b1011100 t
b1011100 J"
b1011100 :
b1011100 ("
b1011100 <
b1011100 r
1!
#1175
b11000 $
0!
