project1/code_pipeline/gg.vcd
$date
	Sun Dec 10 12:31:00 2017
$end
$version
	Icarus Verilog
$end
$timescale
	1s
$end
$scope module TestBench $end
$var reg 1 ! Clk $end
$var reg 1 " Reset $end
$var reg 1 # Start $end
$var integer 32 $ counter [31:0] $end
$var integer 32 % flush [31:0] $end
$var integer 32 & i [31:0] $end
$var integer 32 ' outfile [31:0] $end
$var integer 32 ( stall [31:0] $end
$scope module CPU $end
$var wire 1 ! clk_i $end
$var wire 1 " rst_i $end
$var wire 1 # start_i $end
$var wire 32 ) inst_addr [31:0] $end
$var wire 32 * inst [31:0] $end
$var wire 1 + Zero $end
$var wire 32 , MUXforward2_data [31:0] $end
$var wire 1 - Jump $end
$var wire 1 . Branch $end
$scope module ALU $end
$var wire 32 / data_o [31:0] $end
$var wire 32 0 data2_i [31:0] $end
$var wire 32 1 data1_i [31:0] $end
$var wire 1 + Zero_o $end
$var wire 3 2 ALUCtrl_i [2:0] $end
$upscope $end
$scope module ALU_Control $end
$var wire 6 3 funct_i [5:0] $end
$var wire 2 4 ALUOp_i [1:0] $end
$var wire 3 5 ALUCtrl_o [2:0] $end
$upscope $end
$scope module Add_PC $end
$var wire 32 6 data2_in [31:0] $end
$var wire 32 7 data_o [31:0] $end
$var wire 32 8 data1_in [31:0] $end
$upscope $end
$scope module Add_address $end
$var wire 32 9 data_o [31:0] $end
$var wire 32 : data2_in [31:0] $end
$var wire 32 ; data1_in [31:0] $end
$upscope $end
$scope module Control $end
$var wire 6 < Op_i [5:0] $end
$var reg 1 . branch_o $end
$var reg 10 = ctrl_signal_o [9:0] $end
$var reg 1 - jump_o $end
$upscope $end
$scope module DataMemory $end
$var wire 1 ! clk_i $end
$var wire 32 > addr_i [31:0] $end
$var wire 32 ? Writedata_i [31:0] $end
$var wire 1 @ MemWrite_i $end
$var wire 1 A MemRead_i $end
$var reg 32 B Readdata_o [31:0] $end
$upscope $end
$scope module EXMEM $end
$var wire 32 C addr_i [31:0] $end
$var wire 1 ! clk_i $end
$var wire 1 " rst_i $end
$var wire 5 D rd_i [4:0] $end
$var wire 32 E data_i [31:0] $end
$var wire 2 F WB_i [1:0] $end
$var wire 2 G M_i [1:0] $end
$var reg 2 H M_o [1:0] $end
$var reg 2 I WB_o [1:0] $end
$var reg 32 J addr_o [31:0] $end
$var reg 32 K data_o [31:0] $end
$var reg 5 L rd_o [4:0] $end
$upscope $end
$scope module Flush $end
$var wire 1 . Branch_i $end
$var wire 1 - Jump_i $end
$var wire 1 + Zero_i $end
$var wire 1 M flush_o $end
$upscope $end
$scope module ForwardUnit $end
$var wire 5 N EXMEM_RD_i [4:0] $end
$var wire 1 O EXMEM_RegWrite_i $end
$var wire 1 P MEMWB_RegWrite_i $end
$var wire 5 Q MEMWB_RD_i [4:0] $end
$var wire 5 R IDEX_RT_i [4:0] $end
$var wire 5 S IDEX_RS_i [4:0] $end
$var reg 2 T Forward1_o [1:0] $end
$var reg 2 U Forward2_o [1:0] $end
$upscope $end
$scope module HazardDetection $end
$var wire 1 V IFIDhazard_o $end
$var wire 1 W MUX_Control_hazard_o $end
$var wire 5 X rt_i [4:0] $end
$var wire 32 Y inst_i [31:0] $end
$var wire 1 Z hazard_o $end
$var wire 1 [ MemRead_i $end
$upscope $end
$scope module IDEX $end
$var wire 1 ! clk_i $end
$var wire 5 \ rd_i [4:0] $end
$var wire 5 ] rs_i [4:0] $end
$var wire 1 " rst_i $end
$var wire 5 ^ rt_i [4:0] $end
$var wire 32 _ signextend_i [31:0] $end
$var wire 32 ` data2_i [31:0] $end
$var wire 32 a data1_i [31:0] $end
$var wire 2 b WB_i [1:0] $end
$var wire 2 c M_i [1:0] $end
$var wire 4 d EX_i [3:0] $end
$var reg 4 e EX_o [3:0] $end
$var reg 2 f M_o [1:0] $end
$var reg 2 g WB_o [1:0] $end
$var reg 32 h data1_o [31:0] $end
$var reg 32 i data2_o [31:0] $end
$var reg 5 j rd_o [4:0] $end
$var reg 5 k rs_o [4:0] $end
$var reg 5 l rt_o [4:0] $end
$var reg 32 m signextend_o [31:0] $end
$upscope $end
$scope module IFID $end
$var wire 1 ! clk_i $end
$var wire 1 M flush_i $end
$var wire 1 V hazard_i $end
$var wire 32 n pc_i [31:0] $end
$var wire 1 " rst_i $end
$var wire 32 o inst_i [31:0] $end
$var reg 32 p inst_o [31:0] $end
$var reg 32 q pc_o [31:0] $end
$upscope $end
$scope module Instruction_Memory $end
$var wire 32 r instr_o [31:0] $end
$var wire 32 s addr_i [31:0] $end
$upscope $end
$scope module MEMWB $end
$var wire 2 t WB_i [1:0] $end
$var wire 32 u addr_i [31:0] $end
$var wire 1 ! clk_i $end
$var wire 32 v data_i [31:0] $end
$var wire 5 w rd_i [4:0] $end
$var wire 1 " rst_i $end
$var reg 2 x WB_o [1:0] $end
$var reg 32 y addr_o [31:0] $end
$var reg 32 z data_o [31:0] $end
$var reg 5 { rd_o [4:0] $end
$upscope $end
$scope module MUX32 $end
$var wire 32 | data2_i [31:0] $end
$var wire 1 } select_i $end
$var wire 32 ~ data_o [31:0] $end
$var wire 32 !" data1_i [31:0] $end
$upscope $end
$scope module MUX5 $end
$var wire 5 "" data1_i [4:0] $end
$var wire 5 #" data2_i [4:0] $end
$var wire 1 $" select_i $end
$var wire 5 %" data_o [4:0] $end
$upscope $end
$scope module MUX_Add $end
$var wire 1 + Zero_i $end
$var wire 32 &" data1_i [31:0] $end
$var wire 32 '" data2_i [31:0] $end
$var wire 1 . select_i $end
$var reg 32 (" data_o [31:0] $end
$var reg 1 )" select $end
$upscope $end
$scope module MUX_Control $end
$var wire 10 *" ctrl_sig_i [9:0] $end
$var wire 1 W hazard_i $end
$var reg 2 +" ALUOp [1:0] $end
$var reg 1 ," ALUSrc $end
$var reg 4 -" EX_o [3:0] $end
$var reg 2 ." M_o [1:0] $end
$var reg 1 /" MemRead $end
$var reg 1 0" MemWrite $end
$var reg 1 1" MemtoReg $end
$var reg 1 2" RegDst $end
$var reg 1 3" RegWrite $end
$var reg 2 4" WB_o [1:0] $end
$upscope $end
$scope module MUX_Jump $end
$var wire 32 5" data1_32_i [31:0] $end
$var wire 32 6" data2_i [31:0] $end
$var wire 1 - select_i $end
$var wire 28 7" data1_28_i [27:0] $end
$var reg 32 8" data1 [31:0] $end
$var reg 32 9" data_o [31:0] $end
$upscope $end
$scope module MUX_Write $end
$var wire 32 :" data1_i [31:0] $end
$var wire 32 ;" data2_i [31:0] $end
$var wire 1 <" select_i $end
$var wire 32 =" data_o [31:0] $end
$upscope $end
$scope module MUXforward_1 $end
$var wire 32 >" EXMEM_addr_i [31:0] $end
$var wire 32 ?" MEMWB_data_i [31:0] $end
$var wire 32 @" data_i [31:0] $end
$var wire 2 A" select_i [1:0] $end
$var reg 32 B" data_o [31:0] $end
$upscope $end
$scope module MUXforward_2 $end
$var wire 32 C" EXMEM_addr_i [31:0] $end
$var wire 32 D" MEMWB_data_i [31:0] $end
$var wire 32 E" data_i [31:0] $end
$var wire 2 F" select_i [1:0] $end
$var reg 32 G" data_o [31:0] $end
$upscope $end
$scope module PC $end
$var wire 1 ! clk_i $end
$var wire 1 Z hazard_i $end
$var wire 32 H" pc_i [31:0] $end
$var wire 1 " rst_i $end
$var wire 1 # start_i $end
$var reg 32 I" pc_o [31:0] $end
$upscope $end
$scope module Registers $end
$var wire 5 J" RDaddr_i [4:0] $end
$var wire 32 K" RDdata_i [31:0] $end
$var wire 5 L" RSaddr_i [4:0] $end
$var wire 32 M" RSdata_o [31:0] $end
$var wire 5 N" RTaddr_i [4:0] $end
$var wire 32 O" RTdata_o [31:0] $end
$var wire 1 P" RegWrite_i $end
$var wire 1 ! clk_i $end
$upscope $end
$scope module ShiftLeft26 $end
$var wire 26 Q" data_i [25:0] $end
$var wire 28 R" data_o [27:0] $end
$upscope $end
$scope module ShiftLeft32 $end
$var wire 32 S" data_i [31:0] $end
$var reg 32 T" data_o [31:0] $end
$upscope $end
$scope module Sign_Extend $end
$var wire 16 U" data_i [15:0] $end
$var wire 32 V" data_o [31:0] $end
$upscope $end
$upscope $end
$upscope $end
$enddefinitions $end
#12
$dumpvars
b0 V"
b0 U"
bx0000 T"
b0 S"
b0 R"
b0 Q"
0P"
b0 O"
b0 N"
b0 M"
b0 L"
b0 K"
b0 J"
b0 I"
b100 H"
b0 G"
b0 F"
b0 E"
b0 D"
b0 C"
b0 B"
b0 A"
b0 @"
b0 ?"
b0 >"
b0 ="
0<"
b0 ;"
b0 :"
b100 9"
b0 8"
b0 7"
b100 6"
b100 5"
b10 4"
13"
12"
01"
00"
0/"
b0 ."
b111 -"
0,"
b11 +"
b1110010000 *"
0)"
b100 ("
bx '"
b100 &"
b0 %"
0$"
b0 #"
b0 ""
b0 !"
b0 ~
0}
b0 |
b0 {
b0 z
b0 y
b0 x
b0 w
bx v
b0 u
b0 t
b0 s
b100000000100000 r
b0 q
b0 p
b100000000100000 o
b100 n
b0 m
b0 l
b0 k
b0 j
b0 i
b0 h
b0 g
b0 f
b0 e
b111 d
b0 c
b10 b
b0 a
b0 `
b0 _
b0 ^
b0 ]
b0 \
0[
0Z
b0 Y
b0 X
0W
0V
b0 U
b0 T
b0 S
b0 R
b0 Q
0P
0O
b0 N
0M
b0 L
b0 K
b0 J
b0 I
b0 H
b0 G
b0 F
b0 E
b0 D
b0 C
bx B
0A
0@
b0 ?
b0 >
b1110010000 =
b0 <
b0 ;
bx0000 :
bx 9
b0 8
b100 7
b100 6
b10 5
b0 4
b0 3
b10 2
b0 1
b0 0
b0 /
0.
0-
b0 ,
1+
b0 *
b0 )
b0 (
b11 '
b100000 &
b0 %
b0 $
1#
1"
1!
$end
#25
b1 $
0!
#50
b0 2
b0 5
bx000000 :
bx000000 T"
b1000 9"
b1000 H"
b10000000010000000 8"
b100000000010010000000000001010 o
b100000000010010000000000001010 r
b1000 ("
b1000 5"
b1000 6"
1$"
b11 4
b100000000100000 _
b100000000100000 S"
b100000000100000 V"
b100000000100000 U"
b10000000010000000 7"
b10000000010000000 R"
b100000000100000 Q"
b1000 \
bx z
bx :"
b1000 7
b1000 n
b1000 &"
b100 )
b100 8
b100 s
b100 I"
b111 e
b10 F
b10 g
b100000000100000 *
b100000000100000 Y
b100000000100000 p
b100 ;
b100 q
1!
#75
b10 $
0!
#100
b1000 d
b1000 -"
1,"
02"
b0 +"
b1010000 =
b1010000 *"
b10 2
b10 5
bx00000000 :
bx00000000 T"
b1100 9"
b1100 H"
b1001000000000000101000 8"
b1010 _
b1010 S"
b1010 V"
b1010 U"
b1000 <
b1001 N"
b1001000000000000101000 7"
b1001000000000000101000 R"
b10010000000000001010 Q"
b0 \
b1001 ^
b1000 D
b1000 %"
b100000 3
1O
b10101101000000000000000000000000 o
b10101101000000000000000000000000 r
b1100 ("
b1100 5"
b1100 6"
b100000000010010000000000001010 *
b100000000010010000000000001010 Y
b100000000010010000000000001010 p
b1000 ;
b1000 q
b1000 j
b1000 #"
b100000000100000 m
b100000000100000 |
b10 I
b10 t
b1100 7
b1100 n
b1100 &"
b1000 )
b1000 8
b1000 s
b1000 I"
1!
#125
b11 $
0!
#150
b1 c
b1 ."
b0 b
b0 4"
10"
03"
b1001000 =
b1001000 *"
b1010 /
b1010 C
0+
b1010 0
b1010 ~
b10 2
b10 5
bx0000000000 :
bx0000000000 T"
b10000 9"
b10000 H"
b100000000000000000000000000 8"
1P
1P"
b10101101000010010000000000000100 o
b10101101000010010000000000000100 r
b10000 ("
b10000 5"
b10000 6"
b1001 D
b1001 %"
b1010 3
0$"
1}
b0 4
b0 _
b0 S"
b0 V"
b0 U"
b101011 <
b0 N"
b1000 L"
b100000000000000000000000000 7"
b100000000000000000000000000 R"
b1000000000000000000000000 Q"
b0 ^
b1000 ]
b10 x
b10000 7
b10000 n
b10000 &"
b1100 )
b1100 8
b1100 s
b1100 I"
b1000 L
b1000 N
b1000 w
b0 j
b0 #"
b1001 R
b1001 X
b1001 l
b1001 ""
b1010 m
b1010 |
b1000 e
b10101101000000000000000000000000 *
b10101101000000000000000000000000 Y
b10101101000000000000000000000000 p
b1100 ;
b1100 q
1!
#175
b100 $
0!
#200
b0 /
b0 C
bx000000000000 :
bx000000000000 T"
1+
b10100 9"
b10100 H"
b100001001000000000000010000 8"
b100 _
b100 S"
b100 V"
b100 U"
b1001 N"
b100001001000000000000010000 7"
b100001001000000000000010000 R"
b1000010010000000000000100 Q"
b1001 ^
b0 D
b0 %"
b0 3
b0 0
b0 ~
b1 T
b1 A"
b10001101000011010000000000000100 o
b10001101000011010000000000000100 r
b10100 ("
b10100 5"
b10100 6"
b1000 Q
b1000 {
b1000 J"
b10101101000010010000000000000100 *
b10101101000010010000000000000100 Y
b10101101000010010000000000000100 p
b10000 ;
b10000 q
b0 R
b0 X
b0 l
b0 ""
b1000 S
b1000 k
b0 m
b0 |
b1 G
b1 f
b0 F
b0 g
b1001 L
b1001 N
b1001 w
b1010 >
b1010 J
b1010 u
b1010 >"
b1010 C"
b10100 7
b10100 n
b10100 &"
b10000 )
b10000 8
b10000 s
b10000 I"
1!
#225
b101 $
0!
#250
b10 c
b10 ."
b11 b
b11 4"
1/"
00"
13"
11"
b1110100 =
b1110100 *"
b100 /
b100 C
0+
b11000 9"
b11000 H"
b100001101000000000000010000 8"
b1010 ,
b1010 E
b1010 !"
b1010 G"
b1010 ="
b1010 ?"
b1010 D"
b1010 K"
b1101010010111100000100000 o
b1101010010111100000100000 r
b11000 ("
b11000 5"
b11000 6"
1@
0O
b1001 D
b1001 %"
b1 U
b1 F"
b0 T
b0 A"
b100 3
b100 0
b100 ~
b100011 <
b1101 N"
b100001101000000000000010000 7"
b100001101000000000000010000 R"
b1000011010000000000000100 Q"
b1101 ^
b1001 Q
b1001 {
b1001 J"
b1010 y
b1010 ;"
b11000 7
b11000 n
b11000 &"
b10100 )
b10100 8
b10100 s
b10100 I"
b0 L
b0 N
b0 w
b0 >
b0 J
b0 u
b0 >"
b0 C"
b1 H
b0 I
b0 t
b1001 R
b1001 X
b1001 l
b1001 ""
b100 m
b100 |
b10001101000011010000000000000100 *
b10001101000011010000000000000100 Y
b10001101000011010000000000000100 p
b10100 ;
b10100 q
1!
#275
b110 $
0!
#300
b0 d
b0 -"
b0 c
b0 ."
b0 b
b0 4"
b1110010000 =
b1110010000 *"
bx00000000000000 :
bx00000000000000 T"
1W
1V
1Z
b11100 9"
b11100 H"
b110101001011110000010000000 8"
b0 ,
b0 E
b0 !"
b0 G"
b0 ="
b0 ?"
b0 D"
b0 K"
0P
0P"
b111100000100000 _
b111100000100000 S"
b111100000100000 V"
b111100000100000 U"
b0 <
b1010 `
b1010 O"
b1001 N"
b1101 L"
b110101001011110000010000000 7"
b110101001011110000010000000 R"
b1101010010111100000100000 Q"
b1111 \
b1001 ^
b1101 ]
b1101 D
b1101 %"
1[
b0 U
b0 F"
b100000000010100000000000001101 o
b100000000010100000000000001101 r
b11100 ("
b11100 5"
b11100 6"
b0 Q
b0 {
b0 J"
b0 y
b0 ;"
b0 x
b1101010010111100000100000 *
b1101010010111100000100000 Y
b1101010010111100000100000 p
b11000 ;
b11000 q
b1101 R
b1101 X
b1101 l
b1101 ""
b10 G
b10 f
b11 F
b11 g
b1001 L
b1001 N
b1001 w
b1010 ?
b1010 K
b100 >
b100 J
b100 u
b100 >"
b100 C"
b11100 7
b11100 n
b11100 &"
b11000 )
b11000 8
b11000 s
b11000 I"
1!
#325
b111 $
b1 (
0!
#350
b111 d
b111 -"
b10 b
b10 4"
b1010 B
b1010 v
b1110 /
b1110 C
0/"
01"
0,"
12"
b11 +"
b100 1
b100 B"
b10 T
b10 A"
0W
0V
0Z
b100 ="
b100 ?"
b100 D"
b100 K"
1A
0@
1O
b1001 D
b1001 %"
b100000 3
b1010 0
b1010 ~
0}
0[
b1001 Q
b1001 {
b1001 J"
b100 y
b100 ;"
b1101 L
b1101 N
b1101 w
b0 ?
b0 K
b10 H
b11 I
b11 t
b1111 j
b1111 #"
b1001 R
b1001 X
b1001 l
b1001 ""
b1101 S
b1101 k
b111100000100000 m
b111100000100000 |
b1010 ,
b1010 E
b1010 !"
b1010 G"
b1010 i
b1010 E"
b0 e
b0 G
b0 f
b0 F
b0 g
1!
#375
b1000 $
0!
#400
b1000 d
b1000 -"
1,"
02"
b0 +"
b1010000 =
b1010000 *"
1+
b1010 ="
b1010 ?"
b1010 D"
b1010 K"
b1111 D
b1111 %"
b10100 /
b10100 C
bx0000000000000000 :
bx0000000000000000 T"
b100000 9"
b100000 H"
b1010000000000000110100 8"
1P
1<"
1P"
b1101 _
b1101 S"
b1101 V"
b1101 U"
b1000 <
b0 `
b0 O"
b1010 N"
b0 L"
b1010000000000000110100 7"
b1010000000000000110100 R"
b10100000000000001101 Q"
b0 \
b1010 ^
b0 ]
1$"
b11 4
b1 T
b1 A"
0A
0O
b1001010010101100000011000 o
b1001010010101100000011000 r
b100000 ("
b100000 5"
b100000 6"
b1101 Q
b1101 {
b1101 J"
b1010 z
b1010 :"
b11 x
b100000000010100000000000001101 *
b100000000010100000000000001101 Y
b100000000010100000000000001101 p
b11100 ;
b11100 q
b111 e
b10 F
b10 g
b1001 L
b1001 N
b1001 w
b1010 ?
b1010 K
b1010 1
b1010 B"
b1110 >
b1110 J
b1110 u
b1110 >"
b1110 C"
b0 H
b0 I
b0 t
b100000 7
b100000 n
b100000 &"
b11100 )
b11100 8
b11100 s
b11100 I"
1!
#425
b1001 $
0!
#450
b111 d
b111 -"
0,"
12"
b11 +"
b1110010000 =
b1110010000 *"
0+
b1101 /
b1101 C
b1110 ="
b1110 ?"
b1110 D"
b1110 K"
b10 2
b10 5
bx000000000000000000 :
bx000000000000000000 T"
b100100 9"
b100100 H"
b100101001010110000001100000 8"
0P
0<"
0P"
b1000000000000000000000001011 o
b1000000000000000000000001011 r
b100100 ("
b100100 5"
b100100 6"
b0 1
b0 B"
1O
b1010 D
b1010 %"
b0 T
b0 A"
b1101 3
b1101 0
b1101 ~
0$"
1}
b0 4
b101100000011000 _
b101100000011000 S"
b101100000011000 V"
b101100000011000 U"
b0 <
b1010 `
b1010 O"
b1001 N"
b1010 a
b1010 M"
b1001 L"
b100101001010110000001100000 7"
b100101001010110000001100000 R"
b1001010010101100000011000 Q"
b1011 \
b1001 ^
b1001 ]
b1001 Q
b1001 {
b1001 J"
b1110 y
b1110 ;"
b0 x
b100100 7
b100100 n
b100100 &"
b100000 )
b100000 8
b100000 s
b100000 I"
b1111 L
b1111 N
b1111 w
b10100 >
b10100 J
b10100 u
b10100 >"
b10100 C"
b10 I
b10 t
b0 j
b0 #"
b1010 R
b1010 X
b1010 l
b1010 ""
b0 S
b0 k
b1101 m
b1101 |
b0 ,
b0 E
b0 !"
b0 G"
b0 i
b0 E"
b1000 e
b1001010010101100000011000 *
b1001010010101100000011000 Y
b1001010010101100000011000 p
b100000 ;
b100000 q
1!
#475
b1010 $
0!
#500
b0 d
b0 -"
b0 b
b0 4"
03"
02"
b0 +"
b1 =
b1 *"
b101 2
b101 5
1+
1M
b1100100 /
b1100100 C
bx00000000000000000000 :
bx00000000000000000000 T"
1-
b101100 9"
b101100 H"
b101100 8"
b10100 ="
b10100 ?"
b10100 D"
b10100 K"
1P
1P"
b1011 _
b1011 S"
b1011 V"
b1011 U"
b10 <
b0 `
b0 O"
b0 N"
b0 a
b0 M"
b0 L"
b101100 7"
b101100 R"
b1011 Q"
b0 \
b0 ^
b0 ]
b1011 D
b1011 %"
b11000 3
b1010 0
b1010 ~
1$"
0}
b11 4
b100001001010010000000000000001 o
b100001001010010000000000000001 r
b101000 ("
b101000 5"
b101000 6"
b1111 Q
b1111 {
b1111 J"
b10100 y
b10100 ;"
b10 x
b1000000000000000000000001011 *
b1000000000000000000000001011 Y
b1000000000000000000000001011 p
b100100 ;
b100100 q
b1011 j
b1011 #"
b1001 R
b1001 X
b1001 l
b1001 ""
b1001 S
b1001 k
b101100000011000 m
b101100000011000 |
b1010 ,
b1010 E
b1010 !"
b1010 G"
b1010 i
b1010 E"
b1010 1
b1010 B"
b1010 h
b1010 @"
b111 e
b1010 L
b1010 N
b1010 w
b0 ?
b0 K
b1101 >
b1101 J
b1101 u
b1101 >"
b1101 C"
b101000 7
b101000 n
b101000 &"
b100100 )
b100100 8
b100100 s
b100100 I"
1!
#525
b1011 $
b1 %
0!
#550
b111 d
b111 -"
b10 b
b10 4"
13"
12"
b11 +"
b1110010000 =
b1110010000 *"
b10 2
b10 5
b0 /
b0 C
0M
bx0000000000000000000000 :
bx0000000000000000000000 T"
0-
b110000 9"
b110000 H"
b0 8"
b1101 ="
b1101 ?"
b1101 D"
b1101 K"
b1010010010101000000100010 o
b1010010010101000000100010 r
b110000 ("
b110000 5"
b110000 6"
b0 D
b0 %"
b1011 3
b0 0
b0 ~
1+
0$"
b0 4
b0 _
b0 S"
b0 V"
b0 U"
b0 <
b0 7"
b0 R"
b0 Q"
b1010 Q
b1010 {
b1010 J"
b1101 y
b1101 ;"
b110000 7
b110000 n
b110000 &"
b101100 )
b101100 8
b101100 s
b101100 I"
b1011 L
b1011 N
b1011 w
b1010 ?
b1010 K
b1100100 >
b1100100 J
b1100100 u
b1100100 >"
b1100100 C"
b0 j
b0 #"
b0 R
b0 X
b0 l
b0 ""
b0 S
b0 k
b1011 m
b1011 |
b0 ,
b0 E
b0 !"
b0 G"
b0 i
b0 E"
b0 1
b0 B"
b0 h
b0 @"
b0 e
b0 F
b0 g
b0 *
b0 Y
b0 p
b0 ;
b0 q
1!
#575
b1100 $
0!
#600
b0 2
b0 5
bx000000000000000000000000 :
bx000000000000000000000000 T"
b110100 9"
b110100 H"
b101001001010100000010001000 8"
b1100100 ="
b1100100 ?"
b1100100 D"
b1100100 K"
b101000000100010 _
b101000000100010 S"
b101000000100010 V"
b101000000100010 U"
b1010 `
b1010 O"
b1001 N"
b1101 a
b1101 M"
b1010 L"
b101001001010100000010001000 7"
b101001001010100000010001000 R"
b1010010010101000000100010 Q"
b1010 \
b1001 ^
b1010 ]
b0 3
1$"
b11 4
0O
b1001010100101100000100100 o
b1001010100101100000100100 r
b110100 ("
b110100 5"
b110100 6"
b1011 Q
b1011 {
b1011 J"
b1100100 y
b1100100 ;"
b1010010010101000000100010 *
b1010010010101000000100010 Y
b1010010010101000000100010 p
b110000 ;
b110000 q
b0 m
b0 |
b111 e
b10 F
b10 g
b0 L
b0 N
b0 w
b0 ?
b0 K
b0 >
b0 J
b0 u
b0 >"
b0 C"
b0 I
b0 t
b110100 7
b110100 n
b110100 &"
b110000 )
b110000 8
b110000 s
b110000 I"
1!
#625
b1101 $
0!
#650
b110 2
b110 5
b11 /
b11 C
bx00000000000000000000000000 :
bx00000000000000000000000000 T"
b111000 9"
b111000 H"
b100101010010110000010010000 8"
b0 ="
b0 ?"
b0 D"
b0 K"
0P
0P"
b1010010110110000000100101 o
b1010010110110000000100101 r
b111000 ("
b111000 5"
b111000 6"
1O
b1010 D
b1010 %"
b100010 3
b1010 0
b1010 ~
0+
b101100000100100 _
b101100000100100 S"
b101100000100100 V"
b101100000100100 U"
b1101 `
b1101 O"
b1010 N"
b1010 a
b1010 M"
b1001 L"
b100101010010110000010010000 7"
b100101010010110000010010000 R"
b1001010100101100000100100 Q"
b1011 \
b1010 ^
b1001 ]
b0 Q
b0 {
b0 J"
b0 y
b0 ;"
b0 x
b111000 7
b111000 n
b111000 &"
b110100 )
b110100 8
b110100 s
b110100 I"
b10 I
b10 t
b1010 j
b1010 #"
b1001 R
b1001 X
b1001 l
b1001 ""
b1010 S
b1010 k
b101000000100010 m
b101000000100010 |
b1010 ,
b1010 E
b1010 !"
b1010 G"
b1010 i
b1010 E"
b1101 1
b1101 B"
b1101 h
b1101 @"
b1001010100101100000100100 *
b1001010100101100000100100 Y
b1001010100101100000100100 p
b110100 ;
b110100 q
1!
#675
b1110 $
0!
#700
b0 2
b0 5
b10 /
b10 C
bx0000000000000000000000000000 :
bx0000000000000000000000000000 T"
b111100 9"
b111100 H"
b101001011011000000010010100 8"
1P
1P"
b110000000100101 _
b110000000100101 S"
b110000000100101 V"
b110000000100101 U"
b1100100 `
b1100100 O"
b1011 N"
b1101 a
b1101 M"
b1010 L"
b101001011011000000010010100 7"
b101001011011000000010010100 R"
b1010010110110000000100101 Q"
b1100 \
b1011 ^
b1010 ]
b1011 D
b1011 %"
b100100 3
b11 0
b11 ~
0+
b10 U
b10 F"
b0 o
b0 r
b111100 ("
b111100 5"
b111100 6"
b10 x
b1010010110110000000100101 *
b1010010110110000000100101 Y
b1010010110110000000100101 p
b111000 ;
b111000 q
b1011 j
b1011 #"
b1010 R
b1010 X
b1010 l
b1010 ""
b1001 S
b1001 k
b101100000100100 m
b101100000100100 |
b11 ,
b11 E
b11 !"
b11 G"
b1101 i
b1101 E"
b1010 1
b1010 B"
b1010 h
b1010 @"
b1010 L
b1010 N
b1010 w
b1010 ?
b1010 K
b11 >
b11 J
b11 u
b11 >"
b11 C"
b111100 7
b111100 n
b111100 &"
b111000 )
b111000 8
b111000 s
b111000 I"
1!
#725
b1111 $
0!
#750
b1 2
b1 5
b11 /
b11 C
bx000000000000000000000000000000 :
bx000000000000000000000000000000 T"
b1000000 9"
b1000000 H"
b0 8"
b11 ="
b11 ?"
b11 D"
b11 K"
b1000000 ("
b1000000 5"
b1000000 6"
b10 0
b10 ~
b1100 D
b1100 %"
b10 U
b10 F"
b1 T
b1 A"
b100101 3
b0 _
b0 S"
b0 V"
b0 U"
b0 `
b0 O"
b0 N"
b0 a
b0 M"
b0 L"
b0 7"
b0 R"
b0 Q"
b0 \
b0 ^
b0 ]
b1010 Q
b1010 {
b1010 J"
b11 y
b11 ;"
b1000000 7
b1000000 n
b1000000 &"
b111100 )
b111100 8
b111100 s
b111100 I"
b1011 L
b1011 N
b1011 w
b11 ?
b11 K
b10 ,
b10 E
b10 !"
b10 G"
b10 >
b10 J
b10 u
b10 >"
b10 C"
b1100 j
b1100 #"
b1011 R
b1011 X
b1011 l
b1011 ""
b1010 S
b1010 k
b110000000100101 m
b110000000100101 |
b1100100 i
b1100100 E"
b11 1
b11 B"
b1101 h
b1101 @"
b0 *
b0 Y
b0 p
b111100 ;
b111100 q
1!
#775
b10000 $
0!
#800
b0 2
b0 5
b0 /
b0 C
1+
b1000100 9"
b1000100 H"
b0 1
b0 B"
b10 ="
b10 ?"
b10 D"
b10 K"
b0 D
b0 %"
b0 3
b0 U
b0 F"
b0 T
b0 A"
b0 0
b0 ~
b1000100 ("
b1000100 5"
b1000100 6"
b1011 Q
b1011 {
b1011 J"
b10 y
b10 ;"
b1000000 ;
b1000000 q
b0 j
b0 #"
b0 R
b0 X
b0 l
b0 ""
b0 S
b0 k
b0 m
b0 |
b0 i
b0 E"
b0 h
b0 @"
b1100 L
b1100 N
b1100 w
b10 ?
b10 K
b0 ,
b0 E
b0 !"
b0 G"
b11 >
b11 J
b11 u
b11 >"
b11 C"
b1000100 7
b1000100 n
b1000100 &"
b1000000 )
b1000000 8
b1000000 s
b1000000 I"
1!
#825
b10001 $
0!
#850
b1001000 9"
b1001000 H"
b11 ="
b11 ?"
b11 D"
b11 K"
b1001000 ("
b1001000 5"
b1001000 6"
b1100 Q
b1100 {
b1100 J"
b11 y
b11 ;"
b1001000 7
b1001000 n
b1001000 &"
b1000100 )
b1000100 8
b1000100 s
b1000100 I"
b0 L
b0 N
b0 w
b0 ?
b0 K
b0 >
b0 J
b0 u
b0 >"
b0 C"
b1000100 ;
b1000100 q
1!
#875
b10010 $
0!
#900
b1001100 9"
b1001100 H"
b0 ="
b0 ?"
b0 D"
b0 K"
b1001100 ("
b1001100 5"
b1001100 6"
b0 Q
b0 {
b0 J"
b0 y
b0 ;"
b1001000 ;
b1001000 q
b1001100 7
b1001100 n
b1001100 &"
b1001000 )
b1001000 8
b1001000 s
b1001000 I"
1!
#925
b10011 $
0!
#950
b1010000 9"
b1010000 H"
b1010000 ("
b1010000 5"
b1010000 6"
b1010000 7
b1010000 n
b1010000 &"
b1001100 )
b1001100 8
b1001100 s
b1001100 I"
b1001100 ;
b1001100 q
1!
#975
b10100 $
0!
#1000
b1010100 9"
b1010100 H"
b1010100 ("
b1010100 5"
b1010100 6"
b1010000 ;
b1010000 q
b1010100 7
b1010100 n
b1010100 &"
b1010000 )
b1010000 8
b1010000 s
b1010000 I"
1!
#1025
b10101 $
0!
#1050
b1011000 9"
b1011000 H"
b1011000 ("
b1011000 5"
b1011000 6"
b1011000 7
b1011000 n
b1011000 &"
b1010100 )
b1010100 8
b1010100 s
b1010100 I"
b1010100 ;
b1010100 q
1!
#1075
b10110 $
0!
#1100
b1011100 9"
b1011100 H"
b1011100 ("
b1011100 5"
b1011100 6"
b1011000 ;
b1011000 q
b1011100 7
b1011100 n
b1011100 &"
b1011000 )
b1011000 8
b1011000 s
b1011000 I"
1!
#1125
b10111 $
0!
#1150
b1100000 9"
b1100000 H"
b1100000 ("
b1100000 5"
b1100000 6"
b1100000 7
b1100000 n
b1100000 &"
b1011100 )
b1011100 8
b1011100 s
b1011100 I"
b1011100 ;
b1011100 q
1!
#1175
b11000 $
0!
#1200
b1100100 9"
b1100100 H"
b1100100 ("
b1100100 5"
b1100100 6"
b1100000 ;
b1100000 q
b1100100 7
b1100100 n
b1100100 &"
b1100000 )
b1100000 8
b1100000 s
b1100000 I"
1!
#1225
b11001 $
0!
#1250
b1101000 9"
b1101000 H"
b1101000 ("
b1101000 5"
b1101000 6"
b1101000 7
b1101000 n
b1101000 &"
b1100100 )
b1100100 8
b1100100 s
b1100100 I"
b1100100 ;
b1100100 q
1!
#1275
b11010 $
0!
